[
    {
        "id": 4,
        "title": "{\"en\":\"Lorem ipsum dolor sit amet, consetetur sadipscing elitr, sed diam nonumy eirmod\"}",
        "alias": "lorem-ipsum-dolor-sit-amet-consetetur-sadipscing-elitr-sed-diam-nonumy-eirmod",
        "image": "storage/image/pmBQUp3vdbp2XkivOvX3g33bQcqb1lnXjCFwV4p2.png",
        "user_id": 1,
        "content": "{\"en\":\"<p>Lorem ipsum dolor sit amet, consetetur sadipscing elitr, sed diam nonumy eirmodLorem ipsum dolor sit amet, consetetur sadipscing elitr, sed diam nonumy eirmodLorem ipsum dolor sit amet, consetetur sadipscing elitr, sed diam nonumy eirmodLorem ipsum dolor sit amet, consetetur sadipscing elitr, sed diam nonumy eirmodLorem ipsum dolor sit amet, consetetur sadipscing elitr, sed diam nonumy eirmodLorem ipsum dolor sit amet, consetetur sadipscing elitr, sed diam nonumy eirmodLorem ipsum dolor sit amet, consetetur sadipscing elitr, sed diam nonumy eirmod<\\/p>\"}",
        "description": "{\"en\":\"Lorem ipsum dolor sit amet, consetetur sadipscing elitr, sed diam nonumy eirmod\"}",
        "category_id": 3,
        "created_by": 1,
        "updated_by": 1,
        "deleted_by": null,
        "created_at": "2021-01-20 13:59:00",
        "updated_at": "2021-01-20 14:32:55",
        "deleted_at": "2021-01-20 14:32:55"
    },
    {
        "id": 6,
        "title": "{\"en\":\"\\u041f\\u0440\\u043e\\u043f\\u0430\\u0433\\u0430\\u043d\\u0434\\u0438\\u0441\\u0442\\u0441\\u043a\\u0438\\u0435 \\u041c\\u0435\\u0440\\u043e\\u043f\\u0440\\u0438\\u044f\\u0442\\u0438\\u044f\"}",
        "alias": "propagandistskie-meropriyatiya",
        "image": "storage/image/jal4dBHhDR9QaVzYRBlNR7IAGXCtAqynnAK4qeir.jpg",
        "user_id": 1,
        "content": "{\"en\":\"<p><span style=\\\"background-color:rgb(255,255,255);color:rgb(111,129,144);\\\">\\u041f\\u0440\\u0435\\u043f\\u043e\\u0434\\u0430\\u0432\\u0430\\u0442\\u0435\\u043b\\u0435\\u043c \\u043a\\u0430\\u0444\\u0435\\u0434\\u0440\\u044b \\u0422\\u0440\\u0443\\u0434\\u043e\\u0432\\u043e\\u0433\\u043e \\u043f\\u0440\\u0430\\u0432\\u0430 \\u0422\\u0430\\u0448\\u043a\\u0435\\u043d\\u0442\\u0441\\u043a\\u043e\\u0433\\u043e \\u0433\\u043e\\u0441\\u0443\\u0434\\u0430\\u0440\\u0441\\u0442\\u0432\\u0435\\u043d\\u043d\\u043e\\u0433\\u043e \\u044e\\u0440\\u0438\\u0434\\u0438\\u0447\\u0435\\u0441\\u043a\\u043e\\u0433\\u043e \\u0443\\u043d\\u0438\\u0432\\u0435\\u0440\\u0441\\u0438\\u0442\\u0435\\u0442\\u0430 \\u041c.\\u041a\\u0430\\u0440\\u0438\\u043c\\u0436\\u043e\\u043d\\u043e\\u0432\\u044b\\u043c \\u0431\\u044b\\u043b\\u043e \\u0434\\u043e\\u0432\\u0435\\u0434\\u0435\\u043d\\u043e \\u0441\\u0443\\u0442\\u044c \\u0438 \\u0437\\u043d\\u0430\\u0447\\u0435\\u043d\\u0438\\u0435 \\u041f\\u043e\\u0441\\u043b\\u0430\\u043d\\u0438\\u044f \\u041f\\u0440\\u0435\\u0437\\u0438\\u0434\\u0435\\u043d\\u0442\\u0430 \\u0420\\u0435\\u0441\\u043f\\u0443\\u0431\\u043b\\u0438\\u043a\\u0438 \\u0423\\u0437\\u0431\\u0435\\u043a\\u0438\\u0441\\u0442\\u0430\\u043d \\u0441\\u043e\\u0442\\u0440\\u0443\\u0434\\u043d\\u0438\\u043a\\u0430\\u043c \\u0441\\u0438\\u0441\\u0442\\u0435\\u043c\\u044b \\u041d\\u0430\\u0446\\u0438\\u043e\\u043d\\u0430\\u043b\\u044c\\u043d\\u043e\\u0433\\u043e \\u0430\\u043d\\u0442\\u0438\\u0434\\u043e\\u043f\\u0438\\u043d\\u0433\\u043e\\u0432\\u043e\\u0433\\u043e \\u0430\\u0433\\u0435\\u043d\\u0442\\u0441\\u0442\\u0432\\u0430 \\u043f\\u0440\\u0438 \\u041a\\u0430\\u0431\\u0438\\u043d\\u0435\\u0442\\u0435 \\u041c\\u0438\\u043d\\u0438\\u0441\\u0442\\u0440\\u043e\\u0432 \\u0420\\u0435\\u0441\\u043f\\u0443\\u0431\\u043b\\u0438\\u043a\\u0438 \\u0423\\u0437\\u0431\\u0435\\u043a\\u0438\\u0441\\u0442\\u0430\\u043d.<\\/span><\\/p>\"}",
        "description": "{\"en\":\"\\u041f\\u0440\\u043e\\u043f\\u0430\\u0433\\u0430\\u043d\\u0434\\u0438\\u0441\\u0442\\u0441\\u043a\\u0438\\u0435 \\u041c\\u0435\\u0440\\u043e\\u043f\\u0440\\u0438\\u044f\\u0442\\u0438\\u044f\"}",
        "category_id": 1,
        "created_by": 1,
        "updated_by": 1,
        "deleted_by": null,
        "created_at": "2021-01-17 14:36:58",
        "updated_at": "2021-01-20 14:37:36",
        "deleted_at": "2021-01-20 14:37:36"
    },
    {
        "id": 7,
        "title": "{\"ru\":\"\\u041f\\u0440\\u043e\\u043f\\u0430\\u0433\\u0430\\u043d\\u0434\\u0438\\u0441\\u0442\\u0441\\u043a\\u0438\\u0435 \\u041c\\u0435\\u0440\\u043e\\u043f\\u0440\\u0438\\u044f\\u0442\\u0438\\u044f\"}",
        "alias": "propagandistskie-meropriyatiya-1",
        "image": "storage/image/T5AcLjVsHJB0cKyAfGelkrEF93ShpDu4OMwjn2L0.jpg",
        "user_id": 1,
        "content": "{\"ru\":\"<p><span style=\\\"background-color:rgb(255,255,255);color:rgb(111,129,144);\\\">\\u041f\\u0440\\u043e\\u043f\\u0430\\u0433\\u0430\\u043d\\u0434\\u0438\\u0441\\u0442\\u0441\\u043a\\u043e\\u0435 \\u043c\\u0435\\u0440\\u043e\\u043f\\u0440\\u0438\\u044f\\u0442\\u0438\\u0435 \\u043f\\u043e\\u0441\\u0432\\u044f\\u0449\\u0435\\u043d\\u043d\\u043e\\u0435 \\u0441\\u0443\\u0442\\u0438 \\u0438 \\u0437\\u043d\\u0430\\u0447\\u0435\\u043d\\u0438\\u044f \\u041f\\u043e\\u0441\\u043b\\u0430\\u043d\\u0438\\u044f \\u041f\\u0440\\u0435\\u0437\\u0438\\u0434\\u0435\\u043d\\u0442\\u0430 \\u0420\\u0435\\u0441\\u043f\\u0443\\u0431\\u043b\\u0438\\u043a\\u0438 \\u0423\\u0437\\u0431\\u0435\\u043a\\u0438\\u0441\\u0442\\u0430\\u043d \\u0428\\u0430\\u0432\\u043a\\u0430\\u0442\\u0430 \\u041c\\u0438\\u0440\\u0437\\u0438\\u0451\\u0435\\u0432\\u0430 \\u041e\\u043b\\u0438\\u0439 \\u041c\\u0430\\u0436\\u043b\\u0438\\u0441\\u0443<\\/span><\\/p>\"}",
        "description": "{\"ru\":\"\\u041f\\u0440\\u043e\\u043f\\u0430\\u0433\\u0430\\u043d\\u0434\\u0438\\u0441\\u0442\\u0441\\u043a\\u0438\\u0435 \\u041c\\u0435\\u0440\\u043e\\u043f\\u0440\\u0438\\u044f\\u0442\\u0438\\u044f\"}",
        "category_id": 1,
        "created_by": 1,
        "updated_by": 1,
        "deleted_by": null,
        "created_at": "2021-01-18 14:38:08",
        "updated_at": "2021-01-20 14:38:08",
        "deleted_at": null
    },
    {
        "id": 8,
        "title": "{\"ru\":\"\\u0412 \\u0422\\u0430\\u0448\\u043a\\u0435\\u043d\\u0442\\u0441\\u043a\\u043e\\u043c \\u0433\\u043e\\u0441\\u0443\\u0434\\u0430\\u0440\\u0441\\u0442\\u0432\\u0435\\u043d\\u043d\\u043e\\u043c \\u044e\\u0440\\u0438\\u0434\\u0438\\u0447\\u0435\\u0441\\u043a\\u043e\\u043c \\u0443\\u043d\\u0438\\u0432\\u0435\\u0440\\u0441\\u0438\\u0442\\u0435\\u0442\\u0435 \\u0441\\u043e\\u0441\\u0442\\u043e\\u044f\\u043b\\u0441\\u044f \\u043c\\u0435\\u0436\\u0434\\u0443\\u043d\\u0430\\u0440\\u043e\\u0434\\u043d\\u044b\\u0439 \\u043a\\u0440\\u0443\\u0433\\u043b\\u044b\\u0439 \\u0441\\u0442\\u043e\\u043b\"}",
        "alias": "v-taskentskom-gosudarstvennom-yuridiceskom-universitete-sostoyalsya-mezdunarodnyi-kruglyi-stol",
        "image": "storage/image/9PIm4xCBOWAkZd1gSnQzrg9EAJB46A1tD4I84OY0.jpg",
        "user_id": 1,
        "content": "{\"ru\":\"<p style=\\\"margin-left:0px;\\\">30 \\u0434\\u0435\\u043a\\u0430\\u0431\\u0440\\u044f 2020 \\u0433\\u043e\\u0434\\u0430 \\u0432 \\u0422\\u0430\\u0448\\u043a\\u0435\\u043d\\u0442\\u0441\\u043a\\u043e\\u043c \\u0433\\u043e\\u0441\\u0443\\u0434\\u0430\\u0440\\u0441\\u0442\\u0432\\u0435\\u043d\\u043d\\u043e\\u043c \\u044e\\u0440\\u0438\\u0434\\u0438\\u0447\\u0435\\u0441\\u043a\\u043e\\u043c \\u0443\\u043d\\u0438\\u0432\\u0435\\u0440\\u0441\\u0438\\u0442\\u0435\\u0442\\u0435, \\u0441\\u043e\\u0432\\u043c\\u0435\\u0441\\u0442\\u043d\\u043e \\u0441 \\u042e\\u0436\\u043d\\u043e-\\u041a\\u0430\\u0437\\u0430\\u0445\\u0441\\u0442\\u0430\\u043d\\u0441\\u043a\\u0438\\u043c \\u0433\\u043e\\u0441\\u0443\\u0434\\u0430\\u0440\\u0441\\u0442\\u0432\\u0435\\u043d\\u043d\\u044b\\u043c \\u0443\\u043d\\u0438\\u0432\\u0435\\u0440\\u0441\\u0438\\u0442\\u0435\\u0442\\u043e\\u043c \\u0438\\u043c\\u0435\\u043d\\u0438 \\u041c.\\u0410\\u0443\\u044d\\u0437\\u043e\\u0432\\u0430 \\u0441\\u043e\\u0441\\u0442\\u043e\\u044f\\u043b\\u0441\\u044f \\u043a\\u0440\\u0443\\u0433\\u043b\\u044b\\u0439 \\u0441\\u0442\\u043e\\u043b \\u043d\\u0430 \\u0442\\u0435\\u043c\\u0443 \\u201c\\u0422\\u0440\\u0443\\u0434\\u043e\\u0432\\u043e\\u0439 \\u043a\\u043e\\u0434\\u0435\\u043a\\u0441 \\u0420\\u0435\\u0441\\u043f\\u0443\\u0431\\u043b\\u0438\\u043a\\u0438 \\u0423\\u0437\\u0431\\u0435\\u043a\\u0438\\u0441\\u0442\\u0430\\u043d: \\u043f\\u0440\\u043e\\u0431\\u043b\\u0435\\u043c\\u044b \\u0438 \\u0440\\u0435\\u0448\\u0435\\u043d\\u0438\\u044f\\u201d.<\\/p><p style=\\\"margin-left:0px;\\\">\\u0412 \\u043a\\u0440\\u0443\\u0433\\u043b\\u043e\\u043c \\u0441\\u0442\\u043e\\u043b\\u0435, \\u043e\\u0440\\u0433\\u0430\\u043d\\u0438\\u0437\\u043e\\u0432\\u0430\\u043d\\u043d\\u043e\\u043c \\u043a\\u0430\\u0444\\u0435\\u0434\\u0440\\u043e\\u0439 \\u0422\\u0440\\u0443\\u0434\\u043e\\u0432\\u043e\\u0433\\u043e \\u043f\\u0440\\u0430\\u0432\\u0430, \\u043f\\u0440\\u0438\\u043d\\u044f\\u043b\\u0438 \\u0443\\u0447\\u0430\\u0441\\u0442\\u0438\\u0435 \\u043f\\u0440\\u0435\\u0434\\u0441\\u0442\\u0430\\u0432\\u0438\\u0442\\u0435\\u043b\\u0438 \\u042e\\u0436\\u043d\\u043e-\\u041a\\u0430\\u0437\\u0430\\u0445\\u0441\\u0442\\u0430\\u043d\\u0441\\u043a\\u043e\\u0433\\u043e \\u0443\\u043d\\u0438\\u0432\\u0435\\u0440\\u0441\\u0438\\u0442\\u0435\\u0442\\u0430 \\u0438\\u043c\\u0435\\u043d\\u0438 \\u041c.\\u0410\\u0443\\u044d\\u0437\\u043e\\u0432\\u0430, \\u043f\\u0440\\u043e\\u0444\\u0435\\u0441\\u0441\\u043e\\u0440\\u0430 \\u0438 \\u043f\\u0440\\u0435\\u043f\\u043e\\u0434\\u0430\\u0432\\u0430\\u0442\\u0435\\u043b\\u0438 \\u0410\\u043a\\u0430\\u0434\\u0435\\u043c\\u0438\\u044f \\u0413\\u0435\\u043d\\u0435\\u0440\\u0430\\u043b\\u044c\\u043d\\u043e\\u0439 \\u043f\\u0440\\u043e\\u043a\\u0443\\u0440\\u0430\\u0442\\u0443\\u0440\\u044b, \\u0410\\u043a\\u0430\\u0434\\u0435\\u043c\\u0438\\u044f \\u041c\\u0438\\u043d\\u0438\\u0441\\u0442\\u0435\\u0440\\u0441\\u0442\\u0432\\u0430 \\u0432\\u043d\\u0443\\u0442\\u0440\\u0435\\u043d\\u043d\\u0438\\u0445 \\u0434\\u0435\\u043b, \\u0422\\u0430\\u0448\\u043a\\u0435\\u043d\\u0442\\u0441\\u043a\\u043e\\u0433\\u043e \\u043e\\u0431\\u043b\\u0430\\u0441\\u0442\\u043d\\u043e\\u0433\\u043e \\u044e\\u0440\\u0438\\u0434\\u0438\\u0447\\u0435\\u0441\\u043a\\u043e\\u0433\\u043e \\u0442\\u0435\\u0445\\u043d\\u0438\\u043a\\u0443\\u043c\\u0430, \\u0441\\u0430\\u043c\\u043e\\u0441\\u0442\\u043e\\u044f\\u0442\\u0435\\u043b\\u044c\\u043d\\u044b\\u0435 \\u0441\\u043e\\u0438\\u0441\\u043a\\u0430\\u0442\\u0435\\u043b\\u0438, \\u043c\\u0430\\u0433\\u0438\\u0441\\u0442\\u0440\\u0430\\u043d\\u0442\\u044b, \\u0447\\u043b\\u0435\\u043d\\u044b \\u043a\\u0440\\u0443\\u0436\\u043a\\u043e\\u0432 <strong>\\u201cMehnat huquqi himoyachisi\\u201d \\u0432a \\u201cHR bilimdoni\\u201d<\\/strong>. \\u0412 \\u043d\\u0430\\u0443\\u0447\\u043d\\u043e\\u043c \\u043c\\u0435\\u0440\\u043e\\u043f\\u0440\\u0438\\u044f\\u0442\\u0438\\u0438 \\u0431\\u044b\\u043b \\u043e\\u0431\\u0441\\u0443\\u0436\\u0434\\u0435\\u043d\\u044b \\u043d\\u043e\\u0440\\u043c\\u044b \\u0434\\u0435\\u0439\\u0441\\u0442\\u0432\\u0443\\u044e\\u0449\\u0438\\u0439 \\u0422\\u0440\\u0443\\u0434\\u043e\\u0432\\u043e\\u0439 \\u043a\\u043e\\u0434\\u0435\\u043a\\u0441 \\u0420\\u0435\\u0441\\u043f\\u0443\\u0431\\u043b\\u0438\\u043a\\u0438 \\u0423\\u0437\\u0431\\u0435\\u043a\\u0438\\u0441\\u0442\\u0430\\u043d \\u0438 \\u043f\\u0440\\u043e\\u0435\\u043a\\u0442 \\u0422\\u0440\\u0443\\u0434\\u043e\\u0432\\u043e\\u0433\\u043e \\u043a\\u043e\\u0434\\u0435\\u043a\\u0441\\u0430 \\u0432 \\u043d\\u043e\\u0432\\u043e\\u0439 \\u0440\\u0435\\u0434\\u0430\\u043a\\u0446\\u0438\\u0438. \\u041f\\u043e \\u0438\\u0442\\u043e\\u0433\\u0430\\u043c \\u043a\\u0440\\u0443\\u0433\\u043b\\u043e\\u0433\\u043e \\u0441\\u0442\\u043e\\u043b\\u0430 \\u0431\\u044b\\u043b\\u0438 \\u043e\\u0431\\u043e\\u0431\\u0449\\u0435\\u043d\\u044b \\u043c\\u043d\\u0435\\u043d\\u0438\\u044f \\u0438 \\u0432\\u044b\\u0440\\u0430\\u0431\\u043e\\u0442\\u0430\\u043d\\u044b \\u043f\\u0440\\u0435\\u0434\\u043b\\u043e\\u0436\\u0435\\u043d\\u0438\\u044f \\u043f\\u043e \\u0441\\u043e\\u0432\\u0435\\u0440\\u0448\\u0435\\u043d\\u0441\\u0442\\u0432\\u043e\\u0432\\u0430\\u043d\\u0438\\u044e \\u0434\\u0435\\u0439\\u0441\\u0442\\u0432\\u0443\\u044e\\u0449\\u0435\\u0433\\u043e \\u0437\\u0430\\u043a\\u043e\\u043d\\u043e\\u0434\\u0430\\u0442\\u0435\\u043b\\u044c\\u0441\\u0442\\u0432\\u0430.<\\/p>\"}",
        "description": "{\"ru\":\"\\u0412 \\u0422\\u0430\\u0448\\u043a\\u0435\\u043d\\u0442\\u0441\\u043a\\u043e\\u043c \\u0433\\u043e\\u0441\\u0443\\u0434\\u0430\\u0440\\u0441\\u0442\\u0432\\u0435\\u043d\\u043d\\u043e\\u043c \\u044e\\u0440\\u0438\\u0434\\u0438\\u0447\\u0435\\u0441\\u043a\\u043e\\u043c \\u0443\\u043d\\u0438\\u0432\\u0435\\u0440\\u0441\\u0438\\u0442\\u0435\\u0442\\u0435 \\u0441\\u043e\\u0441\\u0442\\u043e\\u044f\\u043b\\u0441\\u044f \\u043c\\u0435\\u0436\\u0434\\u0443\\u043d\\u0430\\u0440\\u043e\\u0434\\u043d\\u044b\\u0439 \\u043a\\u0440\\u0443\\u0433\\u043b\\u044b\\u0439 \\u0441\\u0442\\u043e\\u043b\"}",
        "category_id": 1,
        "created_by": 1,
        "updated_by": 1,
        "deleted_by": null,
        "created_at": "2021-01-20 14:39:43",
        "updated_at": "2021-01-20 14:39:43",
        "deleted_at": null
    },
    {
        "id": 9,
        "title": "{\"ru\":\"\\u0421\\u043e\\u0441\\u0442\\u043e\\u044f\\u043b\\u0430\\u0441\\u044c \\u043e\\u043d\\u043b\\u0430\\u0439\\u043d \\u0437\\u0430\\u0449\\u0438\\u0442\\u0430 \\u0434\\u043e\\u043a\\u0442\\u043e\\u0440\\u0441\\u043a\\u043e\\u0439 \\u0434\\u0438\\u0441\\u0441\\u0435\\u0440\\u0442\\u0430\\u0446\\u0438\\u0438\"}",
        "alias": "sostoyalas-onlain-zashhita-doktorskoi-dissertacii",
        "image": "storage/image/Xh0GhzfU6r496gfrejikQHAVOUMg2bKojYw9ZrEG.jpg",
        "user_id": 1,
        "content": "{\"ru\":\"<p><span style=\\\"background-color:rgb(255,255,255);color:rgb(111,129,144);\\\">29 \\u0434\\u0435\\u043a\\u0430\\u0431\\u0440\\u044f 2020 \\u0433\\u043e\\u0434\\u0430 \\u0432 16:00 \\u0441\\u043e\\u0441\\u0442\\u043e\\u044f\\u043b\\u0430\\u0441\\u044c \\u043e\\u043d\\u043b\\u0430\\u0439\\u043d \\u0437\\u0430\\u0449\\u0438\\u0442\\u0430 \\u0434\\u043e\\u043a\\u0442\\u043e\\u0440\\u0441\\u043a\\u043e\\u0439 \\u0434\\u0438\\u0441\\u0441\\u0435\\u0440\\u0442\\u0430\\u0446\\u0438\\u0438 (PhD) \\u0441\\u0430\\u043c\\u043e\\u0441\\u0442\\u043e\\u044f\\u0442\\u0435\\u043b\\u044c\\u043d\\u043e\\u0433\\u043e \\u0441\\u043e\\u0438\\u0441\\u043a\\u0430\\u0442\\u0435\\u043b\\u044f \\u0422\\u0430\\u0448\\u043a\\u0435\\u043d\\u0442\\u0441\\u043a\\u043e\\u0433\\u043e \\u0433\\u043e\\u0441\\u0443\\u0434\\u0430\\u0440\\u0441\\u0442\\u0432\\u0435\\u043d\\u043d\\u043e\\u0433\\u043e \\u044e\\u0440\\u0438\\u0434\\u0438\\u0447\\u0435\\u0441\\u043a\\u043e\\u0433\\u043e \\u0443\\u043d\\u0438\\u0432\\u0435\\u0440\\u0441\\u0438\\u0442\\u0435\\u0442\\u0430 \\u0425\\u0443\\u0434\\u0430\\u0439\\u043a\\u0443\\u043b\\u043e\\u0432\\u0430 \\u0424\\u0435\\u0440\\u0443\\u0437\\u0431\\u0435\\u043a\\u0430 \\u0425\\u0443\\u0440\\u0440\\u0430\\u043c\\u043e\\u0432\\u0438\\u0447\\u0430 \\u043d\\u0430 \\u0442\\u0435\\u043c\\u0443 \\u00ab\\u0423\\u0433\\u043e\\u043b\\u043e\\u0432\\u043d\\u043e-\\u043f\\u0440\\u0430\\u0432\\u043e\\u0432\\u044b\\u0435 \\u0430\\u0441\\u043f\\u0435\\u043a\\u0442\\u044b \\u0444\\u0430\\u043a\\u0443\\u043b\\u044c\\u0442\\u0430\\u0442\\u0438\\u0432\\u043d\\u044b\\u0445 \\u043f\\u0440\\u0438\\u0437\\u043d\\u0430\\u043a\\u043e\\u0432 \\u043e\\u0431\\u044a\\u0435\\u043a\\u0442\\u0438\\u0432\\u043d\\u043e\\u0439 \\u0441\\u0442\\u043e\\u0440\\u043e\\u043d\\u044b \\u043f\\u0440\\u0435\\u0441\\u0442\\u0443\\u043f\\u043b\\u0435\\u043d\\u0438\\u044f \\u043f\\u0440\\u0438 \\u043a\\u0432\\u0430\\u043b\\u0438\\u0444\\u0438\\u043a\\u0430\\u0446\\u0438\\u0438 \\u0434\\u0435\\u044f\\u043d\\u0438\\u044f\\u00bb.<\\/span><\\/p>\"}",
        "description": "{\"ru\":\"\\u0421\\u043e\\u0441\\u0442\\u043e\\u044f\\u043b\\u0430\\u0441\\u044c \\u043e\\u043d\\u043b\\u0430\\u0439\\u043d \\u0437\\u0430\\u0449\\u0438\\u0442\\u0430 \\u0434\\u043e\\u043a\\u0442\\u043e\\u0440\\u0441\\u043a\\u043e\\u0439 \\u0434\\u0438\\u0441\\u0441\\u0435\\u0440\\u0442\\u0430\\u0446\\u0438\\u0438\"}",
        "category_id": 1,
        "created_by": 1,
        "updated_by": 1,
        "deleted_by": null,
        "created_at": "2021-01-19 14:40:38",
        "updated_at": "2021-01-20 14:40:38",
        "deleted_at": null
    },
    {
        "id": 10,
        "title": "{\"ru\":\"C\\u0430\\u043c\\u044b\\u0439 \\u0432\\u0430\\u0436\\u043d\\u044b\\u0439 \\u0432\\u043e\\u043f\\u0440\\u043e\\u0441 \\u2014 \\u0442\\u0440\\u0443\\u0434\\u043e\\u0443\\u0441\\u0442\\u0440\\u043e\\u0439\\u0441\\u0442\\u0432\\u043e \\u0432\\u044b\\u043f\\u0443\\u0441\\u043a\\u043d\\u0438\\u043a\\u043e\\u0432\"}",
        "alias": "samyi-vaznyi-vopros-trudoustroistvo-vypusknikov",
        "image": "storage/image/TxfsLIPDNXPFTVtwgomj2TkfAkSF0cAvbbmzN1zT.jpg",
        "user_id": 1,
        "content": "{\"ru\":\"<p style=\\\"margin-left:0px;\\\">\\u0412 \\u043c\\u0435\\u0440\\u043e\\u043f\\u0440\\u0438\\u044f\\u0442\\u0438\\u0438, \\u043e\\u0440\\u0433\\u0430\\u043d\\u0438\\u0437\\u043e\\u0432\\u0430\\u043d\\u043d\\u043e\\u043c \\u0432 \\u043a\\u043e\\u043d\\u0444\\u0435\\u0440\\u0435\\u043d\\u0446-\\u0437\\u0430\\u043b\\u0435 \\u0443\\u043d\\u0438\\u0432\\u0435\\u0440\\u0441\\u0438\\u0442\\u0435\\u0442\\u0430, \\u0442\\u0430\\u043a\\u0436\\u0435 \\u043f\\u0440\\u0438\\u043d\\u044f\\u043b\\u0438 \\u0443\\u0447\\u0430\\u0441\\u0442\\u0438\\u0435 \\u043f\\u0440\\u043e\\u0440\\u0435\\u043a\\u0442\\u043e\\u0440\\u044b, \\u0434\\u0435\\u043a\\u0430\\u043d\\u044b \\u0444\\u0430\\u043a\\u0443\\u043b\\u044c\\u0442\\u0435\\u0442\\u043e\\u0432, \\u0437\\u0430\\u0432\\u0435\\u0434\\u0443\\u044e\\u0449\\u0438\\u0435 \\u043a\\u0430\\u0444\\u0435\\u0434\\u0440\\u0430\\u043c\\u0438, \\u0440\\u0443\\u043a\\u043e\\u0432\\u043e\\u0434\\u0438\\u0442\\u0435\\u043b\\u0438 \\u043f\\u043e\\u0434\\u0440\\u0430\\u0437\\u0434\\u0435\\u043b\\u0435\\u043d\\u0438\\u0439.<\\/p><p style=\\\"margin-left:0px;\\\">\\u0422\\u0430\\u043a\\u0436\\u0435 \\u0434\\u043b\\u044f \\u044e\\u043d\\u043e\\u0448\\u0435\\u0439 \\u0438 \\u0434\\u0435\\u0432\\u0443\\u0448\\u0435\\u043a, \\u043f\\u0440\\u043e\\u0436\\u0438\\u0432\\u0430\\u044e\\u0449\\u0438\\u0445 \\u0432 \\u0440\\u0430\\u0437\\u043d\\u044b\\u0445 \\u043e\\u0431\\u043b\\u0430\\u0441\\u0442\\u044f\\u0445, \\u0441\\u043e\\u0437\\u0434\\u0430\\u043d\\u0430 \\u0432\\u043e\\u0437\\u043c\\u043e\\u0436\\u043d\\u043e\\u0441\\u0442\\u044c \\u0443\\u0447\\u0430\\u0441\\u0442\\u0438\\u044f \\u043d\\u0430 \\u0432\\u0441\\u0442\\u0440\\u0435\\u0447\\u0435 \\u0447\\u0435\\u0440\\u0435\\u0437 \\u043f\\u043b\\u0430\\u0442\\u0444\\u043e\\u0440\\u043c\\u0443 ZOOM.<\\/p><p style=\\\"margin-left:0px;\\\">\\u0412 \\u043d\\u0430\\u0447\\u0430\\u043b\\u0435 \\u0432\\u0441\\u0442\\u0440\\u0435\\u0447\\u0438, \\u043a\\u043e\\u0442\\u043e\\u0440\\u0430\\u044f \\u043f\\u0440\\u043e\\u0448\\u043b\\u0430 \\u0432 \\u0432\\u0438\\u0434\\u0435 \\u043e\\u0442\\u043a\\u0440\\u044b\\u0442\\u043e\\u0433\\u043e \\u0434\\u0438\\u0430\\u043b\\u043e\\u0433\\u0430, \\u0420.\\u0425\\u0430\\u043a\\u0438\\u043c\\u043e\\u0432 \\u043e\\u0441\\u043e\\u0431\\u043e \\u043e\\u0442\\u043c\\u0435\\u0442\\u0438\\u043b, \\u0447\\u0442\\u043e \\u0442\\u0440\\u0443\\u0434\\u043e\\u0443\\u0441\\u0442\\u0440\\u043e\\u0439\\u0441\\u0442\\u0432\\u043e \\u0432\\u044b\\u043f\\u0443\\u0441\\u043a\\u043d\\u0438\\u043a\\u043e\\u0432 \\u2014 \\u0432\\u0430\\u0436\\u043d\\u044b\\u0439 \\u0432\\u043e\\u043f\\u0440\\u043e\\u0441, \\u043f\\u0440\\u0435\\u0434\\u043e\\u0441\\u0442\\u0430\\u0432\\u0438\\u043b \\u0438\\u043d\\u0444\\u043e\\u0440\\u043c\\u0430\\u0446\\u0438\\u044e \\u043e \\u043c\\u0435\\u0440\\u0430\\u0445, \\u043e\\u0441\\u0443\\u0449\\u0435\\u0441\\u0442\\u0432\\u043b\\u044f\\u0435\\u043c\\u044b\\u0445 \\u0432 \\u0443\\u043d\\u0438\\u0432\\u0435\\u0440\\u0441\\u0438\\u0442\\u0435\\u0442\\u0435 \\u043f\\u043e \\u0434\\u0430\\u043d\\u043d\\u043e\\u043c\\u0443 \\u043d\\u0430\\u043f\\u0440\\u0430\\u0432\\u043b\\u0435\\u043d\\u0438\\u044e.<\\/p><p style=\\\"margin-left:0px;\\\">\\u041a\\u0430\\u043a \\u043e\\u0442\\u043c\\u0435\\u0447\\u0430\\u043b\\u043e\\u0441\\u044c, \\u0432\\u0435\\u0434\\u0435\\u0442\\u0441\\u044f \\u0440\\u0430\\u0431\\u043e\\u0442\\u0430 \\u043f\\u043e \\u043d\\u0430\\u043f\\u0440\\u0430\\u0432\\u043b\\u0435\\u043d\\u0438\\u044e \\u043d\\u0430 \\u043f\\u0440\\u0430\\u043a\\u0442\\u0438\\u043a\\u0443 \\u0441\\u0442\\u0443\\u0434\\u0435\\u043d\\u0442\\u043e\\u0432 \\u0438\\u0441\\u0445\\u043e\\u0434\\u044f \\u0438\\u0437 \\u0442\\u0435\\u043c\\u044b \\u0432\\u044b\\u043f\\u0443\\u0441\\u043a\\u043d\\u043e\\u0439 \\u043a\\u0432\\u0430\\u043b\\u0438\\u0444\\u0438\\u043a\\u0430\\u0446\\u0438\\u043e\\u043d\\u043d\\u043e\\u0439 \\u0440\\u0430\\u0431\\u043e\\u0442\\u044b \\u0438\\u043b\\u0438 \\u043d\\u0430\\u043f\\u0440\\u0430\\u0432\\u043b\\u0435\\u043d\\u0438\\u044f, \\u0430 \\u0442\\u0430\\u043a\\u0436\\u0435 \\u0438\\u0445 \\u0434\\u0430\\u043b\\u044c\\u043d\\u0435\\u0439\\u0448\\u0435\\u043c\\u0443 \\u0442\\u0440\\u0443\\u0434\\u043e\\u0443\\u0441\\u0442\\u0440\\u043e\\u0439\\u0441\\u0442\\u0432\\u0443. \\u041f\\u043e \\u0434\\u0430\\u043d\\u043d\\u044b\\u043c \\u0432\\u043e\\u043f\\u0440\\u043e\\u0441\\u0430\\u043c \\u0443\\u0441\\u0442\\u0430\\u043d\\u043e\\u0432\\u043b\\u0435\\u043d\\u043e \\u0441\\u043e\\u0442\\u0440\\u0443\\u0434\\u043d\\u0438\\u0447\\u0435\\u0441\\u0442\\u0432\\u043e \\u0441 \\u0433\\u043e\\u0441\\u0443\\u0434\\u0430\\u0440\\u0441\\u0442\\u0432\\u0435\\u043d\\u043d\\u044b\\u043c\\u0438 \\u0438 \\u043e\\u0431\\u0449\\u0435\\u0441\\u0442\\u0432\\u0435\\u043d\\u043d\\u044b\\u043c\\u0438 \\u043e\\u0440\\u0433\\u0430\\u043d\\u0438\\u0437\\u0430\\u0446\\u0438\\u044f\\u043c\\u0438, \\u0430\\u0434\\u0432\\u043e\\u043a\\u0430\\u0442\\u0441\\u043a\\u0438\\u043c\\u0438 \\u0444\\u0438\\u0440\\u043c\\u0430\\u043c\\u0438, \\u043d\\u043e\\u0442\\u0430\\u0440\\u0438\\u0430\\u043b\\u044c\\u043d\\u044b\\u043c\\u0438 \\u043a\\u043e\\u043d\\u0442\\u043e\\u0440\\u0430\\u043c\\u0438.&nbsp;<\\/p><p style=\\\"margin-left:0px;\\\">\\u0422\\u0430\\u043a\\u0436\\u0435 \\u0441\\u0435\\u0439\\u0447\\u0430\\u0441 \\u0432\\u0435\\u0434\\u0435\\u0442\\u0441\\u044f \\u0440\\u0430\\u0431\\u043e\\u0442\\u0430 \\u043f\\u043e \\u0444\\u043e\\u0440\\u043c\\u0438\\u0440\\u043e\\u0432\\u0430\\u043d\\u0438\\u044e \\u0431\\u0430\\u0437\\u044b \\u0438 \\u043d\\u0430\\u043f\\u0440\\u0430\\u0432\\u043b\\u0435\\u043d\\u0438\\u044e \\u043d\\u0430 \\u043e\\u0441\\u043d\\u043e\\u0432\\u0435 \\u0437\\u0430\\u043f\\u0440\\u043e\\u0441\\u043e\\u0432 \\u043e\\u0440\\u0433\\u0430\\u043d\\u0438\\u0437\\u0430\\u0446\\u0438\\u0439<\\/p><p style=\\\"margin-left:0px;\\\">\\u041a\\u0440\\u043e\\u043c\\u0435 \\u0442\\u043e\\u0433\\u043e, \\u0441 \\u0446\\u0435\\u043b\\u044c\\u044e \\u0441\\u043e\\u0434\\u0435\\u0439\\u0441\\u0442\\u0432\\u0438\\u044f \\u043f\\u0440\\u043e\\u0445\\u043e\\u0436\\u0434\\u0435\\u043d\\u0438\\u044e \\u0441\\u0442\\u0443\\u0434\\u0435\\u043d\\u0442\\u0430\\u043c\\u0438 \\u043f\\u0440\\u0430\\u043a\\u0442\\u0438\\u043a\\u0438 \\u0432 \\u043c\\u0438\\u043d\\u0438\\u0441\\u0442\\u0435\\u0440\\u0441\\u0442\\u0432\\u0430\\u0445, \\u043a\\u043e\\u043c\\u0438\\u0442\\u0435\\u0442\\u0430\\u0445 \\u0438 \\u0432\\u0435\\u0434\\u043e\\u043c\\u0441\\u0442\\u0432\\u0430\\u0445 \\u0441 \\u044d\\u0442\\u0438\\u043c\\u0438 \\u043e\\u0440\\u0433\\u0430\\u043d\\u0438\\u0437\\u0430\\u0446\\u0438\\u044f\\u043c\\u0438 \\u0432\\u0435\\u0434\\u0443\\u0442\\u0441\\u044f \\u043f\\u0435\\u0440\\u0435\\u0433\\u043e\\u0432\\u043e\\u0440\\u044b.<\\/p><p style=\\\"margin-left:0px;\\\">\\u041d\\u0430 \\u0432\\u0441\\u0442\\u0440\\u0435\\u0447\\u0435 \\u0441\\u0442\\u0443\\u0434\\u0435\\u043d\\u0442\\u044b \\u0442\\u0430\\u043a\\u0436\\u0435 \\u0432\\u043d\\u0435\\u0441\\u043b\\u0438 \\u043f\\u0440\\u0435\\u0434\\u043b\\u043e\\u0436\\u0435\\u043d\\u0438\\u044f \\u043f\\u043e \\u0432\\u043e\\u043f\\u0440\\u043e\\u0441\\u0430\\u043c \\u043f\\u0440\\u043e\\u0445\\u043e\\u0436\\u0434\\u0435\\u043d\\u0438\\u044f \\u043f\\u0440\\u0430\\u043a\\u0442\\u0438\\u043a\\u0438 \\u0438 \\u0442\\u0440\\u0443\\u0434\\u043e\\u0443\\u0441\\u0442\\u0440\\u043e\\u0439\\u0441\\u0442\\u0432\\u0430.<\\/p><p style=\\\"margin-left:0px;\\\">\\u0412 \\u0447\\u0430\\u0441\\u0442\\u043d\\u043e\\u0441\\u0442\\u0438, \\u043e\\u043d\\u0438 \\u043e\\u0431\\u0440\\u0430\\u0442\\u0438\\u043b\\u0438\\u0441\\u044c \\u043a \\u0440\\u0435\\u043a\\u0442\\u043e\\u0440\\u0443 \\u0441 \\u043f\\u0440\\u043e\\u0441\\u044c\\u0431\\u043e\\u0439 \\u0441\\u043e\\u0434\\u0435\\u0439\\u0441\\u0442\\u0432\\u043e\\u0432\\u0430\\u0442\\u044c \\u043f\\u0440\\u043e\\u0445\\u043e\\u0436\\u0434\\u0435\\u043d\\u0438\\u044e \\u043f\\u0440\\u0430\\u043a\\u0442\\u0438\\u043a\\u0438 \\u0432 \\u0431\\u0430\\u043d\\u043a\\u0430\\u0445, \\u043c\\u0438\\u043d\\u0438\\u0441\\u0442\\u0435\\u0440\\u0441\\u0442\\u0432\\u0430\\u0445 \\u0438 \\u0432\\u0435\\u0434\\u043e\\u043c\\u0441\\u0442\\u0432\\u0430\\u0445.<\\/p><p style=\\\"margin-left:0px;\\\">\\u0412 \\u0445\\u043e\\u0434\\u0435 \\u043e\\u0442\\u043a\\u0440\\u044b\\u0442\\u043e\\u0433\\u043e \\u0434\\u0438\\u0430\\u043b\\u043e\\u0433\\u0430 \\u0431\\u043e\\u043b\\u044c\\u0448\\u0438\\u043d\\u0441\\u0442\\u0432\\u043e \\u043e\\u0431\\u0440\\u0430\\u0449\\u0435\\u043d\\u0438\\u0439 \\u0441\\u0442\\u0443\\u0434\\u0435\\u043d\\u0442\\u043e\\u0432 \\u0440\\u0435\\u0448\\u0435\\u043d\\u044b \\u043d\\u0430 \\u043c\\u0435\\u0441\\u0442\\u0435.<\\/p><p style=\\\"margin-left:0px;\\\">\\u0422\\u0430\\u043a\\u0436\\u0435 \\u043f\\u0440\\u043e\\u0440\\u0435\\u043a\\u0442\\u043e\\u0440\\u0430\\u043c, \\u0434\\u0435\\u043a\\u0430\\u043d\\u0430\\u043c, \\u0437\\u0430\\u0432\\u0435\\u0434\\u0443\\u044e\\u0449\\u0438\\u043c \\u043a\\u0430\\u0444\\u0435\\u0434\\u0440 \\u0438 \\u0440\\u0443\\u043a\\u043e\\u0432\\u043e\\u0434\\u0438\\u0442\\u0435\\u043b\\u044f\\u043c \\u043f\\u043e\\u0434\\u0440\\u0430\\u0437\\u0434\\u0435\\u043b\\u0435\\u043d\\u0438\\u0439 \\u0434\\u0430\\u043d \\u0440\\u044f\\u0434 \\u043f\\u043e\\u0440\\u0443\\u0447\\u0435\\u043d\\u0438\\u0439 \\u043f\\u043e \\u0440\\u0435\\u0448\\u0435\\u043d\\u0438\\u044e \\u043d\\u0435\\u043a\\u043e\\u0442\\u043e\\u0440\\u044b\\u0445 \\u0432\\u043e\\u043f\\u0440\\u043e\\u0441\\u043e\\u0432.<\\/p><p style=\\\"margin-left:0px;\\\">\\u0412 \\u0445\\u043e\\u0434\\u0435 \\u043c\\u0435\\u0440\\u043e\\u043f\\u0440\\u0438\\u044f\\u0442\\u0438\\u044f \\u0441\\u0442\\u0443\\u0434\\u0435\\u043d\\u0442\\u044b \\u043f\\u043e\\u043b\\u0443\\u0447\\u0438\\u043b\\u0438 \\u043e\\u0442\\u0432\\u0435\\u0442\\u044b \\u043d\\u0430 \\u043c\\u043d\\u043e\\u0433\\u0438\\u0435 \\u0438\\u043d\\u0442\\u0435\\u0440\\u0435\\u0441\\u0443\\u044e\\u0449\\u0438\\u0435 \\u0438\\u0445 \\u0432\\u043e\\u043f\\u0440\\u043e\\u0441\\u044b.<\\/p>\"}",
        "description": "{\"ru\":\"C\\u0430\\u043c\\u044b\\u0439 \\u0432\\u0430\\u0436\\u043d\\u044b\\u0439 \\u0432\\u043e\\u043f\\u0440\\u043e\\u0441 \\u2014 \\u0442\\u0440\\u0443\\u0434\\u043e\\u0443\\u0441\\u0442\\u0440\\u043e\\u0439\\u0441\\u0442\\u0432\\u043e \\u0432\\u044b\\u043f\\u0443\\u0441\\u043a\\u043d\\u0438\\u043a\\u043e\\u0432\"}",
        "category_id": 1,
        "created_by": 1,
        "updated_by": 1,
        "deleted_by": null,
        "created_at": "2021-01-15 14:41:32",
        "updated_at": "2021-01-28 17:58:36",
        "deleted_at": null
    },
    {
        "id": 11,
        "title": "{\"ru\":\"\\u041f\\u0440\\u043e\\u0444\\u0435\\u0441\\u0441\\u043e\\u0440\\u0441\\u043a\\u043e-\\u043f\\u0440\\u0435\\u043f\\u043e\\u0434\\u0430\\u0432\\u0430\\u0442\\u0435\\u043b\\u044c\\u0441\\u043a\\u0438\\u0439 \\u0441\\u043e\\u0441\\u0442\\u0430\\u0432 \\u0422\\u0413\\u042e\\u0423 \\u043f\\u043e\\u043f\\u043e\\u043b\\u043d\\u044f\\u0435\\u0442\\u0441\\u044f \\u0432\\u0435\\u0434\\u0443\\u0449\\u0438\\u043c\\u0438 \\u043f\\u0440\\u043e\\u0444\\u0435\\u0441\\u0441\\u043e\\u0440\\u0430\\u043c\\u0438 \\u0437\\u0430\\u0440\\u0443\\u0431\\u0435\\u0436\\u043d\\u044b\\u0445 \\u0441\\u0442\\u0440\\u0430\\u043d\"}",
        "alias": "professorsko-prepodavatelskii-sostav-tgyuu-popolnyaetsya-vedushhimi-professorami-zarubeznyx-stran",
        "image": "storage/image/klDocBag9quCqjKFvnx9NRB2vpwc2VCGdWsgVdEJ.jpg",
        "user_id": 1,
        "content": "{\"ru\":\"<p style=\\\"margin-left:0px;\\\"><strong>\\u0414\\u043e\\u043a\\u0442\\u043e\\u0440 \\u0410\\u043c\\u043c\\u0430\\u0440 \\u042e\\u043d\\u0430\\u0441<\\/strong> \\u2014 \\u041d\\u0430\\u0443\\u0447\\u043d\\u044b\\u0439 \\u0441\\u043e\\u0442\\u0440\\u0443\\u0434\\u043d\\u0438\\u043a \\u0423\\u043d\\u0438\\u0432\\u0435\\u0440\\u0441\\u0438\\u0442\\u0435\\u0442\\u0430 \\u041a\\u0438\\u0442\\u0430\\u0439\\u0441\\u043a\\u043e\\u0439 \\u0430\\u043a\\u0430\\u0434\\u0435\\u043c\\u0438\\u0438 \\u043d\\u0430\\u0443\\u043a, \\u0413\\u0435\\u043d\\u0435\\u0440\\u0430\\u043b\\u044c\\u043d\\u044b\\u0439 \\u0434\\u0438\\u0440\\u0435\\u043a\\u0442\\u043e\\u0440 \\u00abAi Mo Innovation Consultants\\u00bb.<\\/p><p style=\\\"margin-left:0px;\\\">\\u042f\\u0432\\u043b\\u044f\\u0435\\u0442\\u0441\\u044f \\u0430\\u0432\\u0442\\u043e\\u0440\\u043e\\u043c \\u0431\\u043e\\u043b\\u0435\\u0435 50 \\u0441\\u0442\\u0430\\u0442\\u0435\\u0439 \\u0438 \\u0447\\u043b\\u0435\\u043d\\u043e\\u043c \\u0432\\u0435\\u0434\\u0443\\u0449\\u0438\\u0445 \\u044e\\u0440\\u0438\\u0434\\u0438\\u0447\\u0435\\u0441\\u043a\\u0438\\u0445 \\u043e\\u0440\\u0433\\u0430\\u043d\\u0438\\u0437\\u0430\\u0446\\u0438\\u0438, \\u0432\\u043a\\u043b\\u044e\\u0447\\u0435\\u043d\\u043d\\u044b\\u0445 \\u0432 \\u0441\\u043f\\u0438\\u0441\\u043a\\u0438 \\u0440\\u0430\\u0437\\u043b\\u0438\\u0447\\u043d\\u044b\\u0445 \\u0430\\u0440\\u0431\\u0438\\u0442\\u0440\\u0430\\u0436\\u043d\\u044b\\u0445 \\u0438\\u043d\\u0441\\u0442\\u0438\\u0442\\u0443\\u0442\\u043e\\u0432.<\\/p><p style=\\\"margin-left:0px;\\\">\\u0412 \\u043d\\u0430\\u0441\\u0442\\u043e\\u044f\\u0449\\u0435\\u0435 \\u0432\\u0440\\u0435\\u043c\\u044f \\u043e\\u043d \\u0440\\u0430\\u0431\\u043e\\u0442\\u0430\\u0435\\u0442 \\u043a\\u0430\\u043a \\u043d\\u0430\\u0443\\u0447\\u043d\\u044b\\u0439 \\u0441\\u043e\\u0442\\u0440\\u0443\\u0434\\u043d\\u0438\\u043a \\u0432 \\u0423\\u043d\\u0438\\u0432\\u0435\\u0440\\u0441\\u0438\\u0442\\u0435\\u0442\\u0430 \\u041a\\u0438\\u0442\\u0430\\u0439\\u0441\\u043a\\u043e\\u0439 \\u0430\\u043a\\u0430\\u0434\\u0435\\u043c\\u0438\\u0438 \\u043d\\u0430\\u0443\\u043a (Beijing).<\\/p><p style=\\\"margin-left:0px;\\\">\\u0421 \\u0434\\u0435\\u043a\\u0430\\u0431\\u0440\\u044f \\u0410\\u043c\\u043c\\u0430\\u0440 \\u042e\\u043d\\u0430\\u0441 \\u0441\\u0447\\u0438\\u0442\\u0430\\u0435\\u0442\\u0441\\u044f \\u043f\\u0440\\u043e\\u0444\\u0435\\u0441\\u0441\\u043e\\u0440\\u043e\\u043c <strong>\\u043a\\u0430\\u0444\\u0435\\u0434\\u0440\\u044b \\u043c\\u0435\\u0436\\u0434\\u0443\\u043d\\u0430\\u0440\\u043e\\u0434\\u043d\\u043e\\u0433\\u043e \\u0447\\u0430\\u0441\\u0442\\u043d\\u043e\\u0433\\u043e \\u043f\\u0440\\u0430\\u0432\\u0430<\\/strong> \\u0422\\u0413\\u042e\\u0423.<\\/p><p style=\\\"margin-left:0px;\\\">\\u0417\\u0430\\u043d\\u044f\\u0442\\u0438\\u044f \\u043f\\u0440\\u043e\\u0432\\u043e\\u0434\\u044f\\u0442\\u0441\\u044f \\u043d\\u0430 \\u0430\\u043d\\u0433\\u043b\\u0438\\u0439\\u0441\\u043a\\u043e\\u043c \\u044f\\u0437\\u044b\\u043a\\u0435. \\u0421\\u0442\\u0443\\u0434\\u0435\\u043d\\u0442\\u044b, \\u0430\\u043a\\u0442\\u0438\\u0432\\u043d\\u043e \\u0443\\u0447\\u0430\\u0441\\u0442\\u0432\\u0443\\u044e\\u0449\\u0438\\u0435 \\u0432 \\u043a\\u0443\\u0440\\u0441\\u0435, \\u043f\\u043e\\u043b\\u0443\\u0447\\u0430\\u0442 \\u0421\\u0415\\u0420\\u0422\\u0418\\u0424\\u0418\\u041a\\u0410\\u0422.<\\/p><p style=\\\"margin-left:0px;\\\">\\u0421\\u0442\\u0443\\u0434\\u0435\\u043d\\u0442\\u044b, \\u0436\\u0435\\u043b\\u0430\\u044e\\u0449\\u0438\\u0435 \\u0441\\u0442\\u0430\\u0442\\u044c \\u0441\\u043b\\u0443\\u0448\\u0430\\u0442\\u0435\\u043b\\u044f\\u043c\\u0438 \\u043a\\u0443\\u0440\\u0441\\u0430, \\u043c\\u043e\\u0433\\u0443\\u0442 \\u0437\\u0430\\u0440\\u0435\\u0433\\u0438\\u0441\\u0442\\u0440\\u0438\\u0440\\u043e\\u0432\\u0430\\u0442\\u044c\\u0441\\u044f \\u0447\\u0435\\u0440\\u0435\\u0437 \\u0433\\u0440\\u0443\\u043f\\u043f\\u0443 @tsul_special_lectures.<\\/p>\"}",
        "description": "{\"ru\":\"\\u041f\\u0440\\u043e\\u0444\\u0435\\u0441\\u0441\\u043e\\u0440\\u0441\\u043a\\u043e-\\u043f\\u0440\\u0435\\u043f\\u043e\\u0434\\u0430\\u0432\\u0430\\u0442\\u0435\\u043b\\u044c\\u0441\\u043a\\u0438\\u0439 \\u0441\\u043e\\u0441\\u0442\\u0430\\u0432 \\u0422\\u0413\\u042e\\u0423 \\u043f\\u043e\\u043f\\u043e\\u043b\\u043d\\u044f\\u0435\\u0442\\u0441\\u044f \\u0432\\u0435\\u0434\\u0443\\u0449\\u0438\\u043c\\u0438 \\u043f\\u0440\\u043e\\u0444\\u0435\\u0441\\u0441\\u043e\\u0440\\u0430\\u043c\\u0438 \\u0437\\u0430\\u0440\\u0443\\u0431\\u0435\\u0436\\u043d\\u044b\\u0445 \\u0441\\u0442\\u0440\\u0430\\u043d\"}",
        "category_id": 1,
        "created_by": 1,
        "updated_by": 1,
        "deleted_by": null,
        "created_at": "2021-01-14 14:42:13",
        "updated_at": "2021-01-20 14:42:13",
        "deleted_at": null
    },
    {
        "id": 12,
        "title": "{\"ru\":\"\\u0422\\u0413\\u042e\\u0423 \\u0443\\u0441\\u0442\\u0430\\u043d\\u043e\\u0432\\u0438\\u043b \\u0441\\u043e\\u0442\\u0440\\u0443\\u0434\\u043d\\u0438\\u0447\\u0435\\u0441\\u0442\\u0432\\u043e \\u0441 \\u0435\\u0434\\u0438\\u043d\\u0441\\u0442\\u0432\\u0435\\u043d\\u043d\\u044b\\u043c \\u0432\\u044b\\u0441\\u0448\\u0438\\u043c \\u043e\\u0431\\u0440\\u0430\\u0437\\u043e\\u0432\\u0430\\u0442\\u0435\\u043b\\u044c\\u043d\\u044b\\u043c \\u0443\\u0447\\u0440\\u0435\\u0436\\u0434\\u0435\\u043d\\u0438\\u0435\\u043c \\u043f\\u0440\\u0438 \\u041f\\u0440\\u0435\\u0437\\u0438\\u0434\\u0435\\u043d\\u0442\\u0435 \\u0420\\u0424\"}",
        "alias": "tgyuu-ustanovil-sotrudnicestvo-s-edinstvennym-vyssim-obrazovatelnym-ucrezdeniem-pri-prezidente-rf",
        "image": "storage/image/BCZyxJFyx438vRN56cPXUGAySSUIQvmu9pvb3kUH.jpg",
        "user_id": 1,
        "content": "{\"ru\":\"<p style=\\\"margin-left:0px;\\\">\\u041d\\u0430 \\u0446\\u0435\\u0440\\u0435\\u043c\\u043e\\u043d\\u0438\\u0438, \\u043e\\u0440\\u0433\\u0430\\u043d\\u0438\\u0437\\u043e\\u0432\\u0430\\u043d\\u043d\\u043e\\u0439 \\u043d\\u0430 \\u043f\\u043b\\u0430\\u0442\\u0444\\u043e\\u0440\\u043c\\u0435 Zoom \\u0432 \\u0441\\u0432\\u044f\\u0437\\u0438 \\u0441 \\u044d\\u0442\\u0438\\u043c \\u0441\\u043e\\u0431\\u044b\\u0442\\u0438\\u0435\\u043c, \\u043f\\u0440\\u0438\\u043d\\u044f\\u043b\\u0438 \\u0443\\u0447\\u0430\\u0441\\u0442\\u0438\\u0435 \\u0440\\u0435\\u043a\\u0442\\u043e\\u0440 \\u0422\\u0430\\u0448\\u043a\\u0435\\u043d\\u0442\\u0441\\u043a\\u043e\\u0433\\u043e \\u0433\\u043e\\u0441\\u0443\\u0434\\u0430\\u0440\\u0441\\u0442\\u0432\\u0435\\u043d\\u043d\\u043e\\u0433\\u043e \\u0443\\u043d\\u0438\\u0432\\u0435\\u0440\\u0441\\u0438\\u0442\\u0435\\u0442\\u0430 \\u0420\\u0430\\u0445\\u0438\\u043c\\u0436\\u043e\\u043d \\u0425\\u0430\\u043a\\u0438\\u043c\\u043e\\u0432, \\u0440\\u0435\\u043a\\u0442\\u043e\\u0440 \\u0430\\u043a\\u0430\\u0434\\u0435\\u043c\\u0438\\u0438 \\u0412\\u043b\\u0430\\u0434\\u0438\\u043c\\u0438\\u0440 \\u041c\\u0430\\u0443 \\u0438 \\u0434\\u0440\\u0443\\u0433\\u0438\\u0435 \\u0440\\u0443\\u043a\\u043e\\u0432\\u043e\\u0434\\u0438\\u0442\\u0435\\u043b\\u0438 \\u0443\\u0447\\u0440\\u0435\\u0436\\u0434\\u0435\\u043d\\u0438\\u0439.<\\/p><p style=\\\"margin-left:0px;\\\">\\u041a\\u0430\\u043a \\u0431\\u044b\\u043b\\u043e \\u043e\\u0442\\u043c\\u0435\\u0447\\u0435\\u043d\\u043e \\u043d\\u0430 \\u0446\\u0435\\u0440\\u0435\\u043c\\u043e\\u043d\\u0438\\u0438, \\u043f\\u043e\\u0434\\u043f\\u0438\\u0441\\u0430\\u043d\\u043d\\u044b\\u0439 \\u0441 \\u0446\\u0435\\u043b\\u044c\\u044e \\u0434\\u0430\\u043b\\u044c\\u043d\\u0435\\u0439\\u0448\\u0435\\u0433\\u043e \\u0443\\u043a\\u0440\\u0435\\u043f\\u043b\\u0435\\u043d\\u0438\\u044f \\u0438 \\u043f\\u043e\\u0434\\u0434\\u0435\\u0440\\u0436\\u043a\\u0438 \\u043d\\u0430\\u0443\\u0447\\u043d\\u043e\\u0433\\u043e \\u0438 \\u043a\\u0443\\u043b\\u044c\\u0442\\u0443\\u0440\\u043d\\u043e\\u0433\\u043e \\u0441\\u043e\\u0442\\u0440\\u0443\\u0434\\u043d\\u0438\\u0447\\u0435\\u0441\\u0442\\u0432\\u0430 \\u043c\\u0435\\u0436\\u0434\\u0443 \\u0443\\u043d\\u0438\\u0432\\u0435\\u0440\\u0441\\u0438\\u0442\\u0435\\u0442\\u043e\\u043c \\u0438 \\u0430\\u043a\\u0430\\u0434\\u0435\\u043c\\u0438\\u0435\\u0439 \\u0434\\u043e\\u043a\\u0443\\u043c\\u0435\\u043d\\u0442 \\u044f\\u0432\\u043b\\u044f\\u0435\\u0442\\u0441\\u044f \\u0435\\u0449\\u0435 \\u043e\\u0434\\u043d\\u0438\\u043c \\u0432\\u0430\\u0436\\u043d\\u044b\\u043c \\u0448\\u0430\\u0433\\u043e\\u043c \\u0432 \\u0440\\u0430\\u0437\\u0432\\u0438\\u0442\\u0438\\u0438 \\u044e\\u0440\\u0438\\u0434\\u0438\\u0447\\u0435\\u0441\\u043a\\u043e\\u0433\\u043e \\u043e\\u0431\\u0440\\u0430\\u0437\\u043e\\u0432\\u0430\\u043d\\u0438\\u044f \\u0438 \\u043d\\u0430\\u0443\\u043a\\u0438 \\u0432 \\u043d\\u0430\\u0448\\u0435\\u0439 \\u0441\\u0442\\u0440\\u0430\\u043d\\u0435.<\\/p><p style=\\\"margin-left:0px;\\\">\\u0421\\u043e\\u0433\\u043b\\u0430\\u0441\\u043d\\u043e \\u0434\\u043e\\u0433\\u043e\\u0432\\u043e\\u0440\\u0443 \\u0432 \\u0431\\u043b\\u0438\\u0436\\u0430\\u0439\\u0448\\u0435\\u043c \\u0431\\u0443\\u0434\\u0443\\u0449\\u0435\\u043c \\u043c\\u0435\\u0436\\u0434\\u0443 \\u0434\\u0432\\u0443\\u043c\\u044f \\u0432\\u044b\\u0441\\u0448\\u0438\\u043c\\u0438 \\u043e\\u0431\\u0440\\u0430\\u0437\\u043e\\u0432\\u0430\\u0442\\u0435\\u043b\\u044c\\u043d\\u044b\\u043c\\u0438 \\u0443\\u0447\\u0440\\u0435\\u0436\\u0434\\u0435\\u043d\\u0438\\u044f\\u043c\\u0438 \\u0431\\u0443\\u0434\\u0435\\u0442 \\u043d\\u0430\\u043b\\u0430\\u0436\\u0435\\u043d \\u0430\\u043a\\u0430\\u0434\\u0435\\u043c\\u0438\\u0447\\u0435\\u0441\\u043a\\u0438\\u0439 \\u043e\\u0431\\u043c\\u0435\\u043d \\u0441\\u0442\\u0443\\u0434\\u0435\\u043d\\u0442\\u0430\\u043c\\u0438 \\u0438 \\u043f\\u0440\\u043e\\u0444\\u0435\\u0441\\u0441\\u043e\\u0440\\u0430\\u043c\\u0438, \\u0440\\u0430\\u0437\\u0440\\u0430\\u0431\\u043e\\u0442\\u0430\\u043d\\u044b \\u0438 \\u0432\\u043d\\u0435\\u0434\\u0440\\u0435\\u043d\\u044b \\u0441\\u043e\\u0432\\u043c\\u0435\\u0441\\u0442\\u043d\\u044b\\u0435 \\u043f\\u0440\\u043e\\u0433\\u0440\\u0430\\u043c\\u043c\\u044b \\u043f\\u043e\\u0434\\u0433\\u043e\\u0442\\u043e\\u0432\\u043a\\u0438 \\u043a\\u0430\\u0434\\u0440\\u043e\\u0432, \\u043f\\u0435\\u0440\\u0435\\u043f\\u043e\\u0434\\u0433\\u043e\\u0442\\u043e\\u0432\\u043a\\u0438 \\u0438 \\u043f\\u043e\\u0432\\u044b\\u0448\\u0435\\u043d\\u0438\\u044f \\u043a\\u0432\\u0430\\u043b\\u0438\\u0444\\u0438\\u043a\\u0430\\u0446\\u0438\\u0438 \\u0434\\u043b\\u044f \\u0431\\u0430\\u043a\\u0430\\u043b\\u0430\\u0432\\u0440\\u0438\\u0430\\u0442\\u0430, \\u043c\\u0430\\u0433\\u0438\\u0441\\u0442\\u0440\\u0430\\u0442\\u0443\\u0440\\u044b, \\u0434\\u043e\\u043a\\u0442\\u043e\\u0440\\u0430\\u043d\\u0442\\u0443\\u0440\\u044b, \\u0430 \\u0442\\u0430\\u043a\\u0436\\u0435 \\u043e\\u0440\\u0433\\u0430\\u043d\\u043e\\u0432 \\u0433\\u043e\\u0441\\u0443\\u0434\\u0430\\u0440\\u0441\\u0442\\u0432\\u0435\\u043d\\u043d\\u043e\\u0439 \\u0432\\u043b\\u0430\\u0441\\u0442\\u0438.<\\/p>\"}",
        "description": "{\"ru\":\"\\u0422\\u0413\\u042e\\u0423 \\u0443\\u0441\\u0442\\u0430\\u043d\\u043e\\u0432\\u0438\\u043b \\u0441\\u043e\\u0442\\u0440\\u0443\\u0434\\u043d\\u0438\\u0447\\u0435\\u0441\\u0442\\u0432\\u043e \\u0441 \\u0435\\u0434\\u0438\\u043d\\u0441\\u0442\\u0432\\u0435\\u043d\\u043d\\u044b\\u043c \\u0432\\u044b\\u0441\\u0448\\u0438\\u043c \\u043e\\u0431\\u0440\\u0430\\u0437\\u043e\\u0432\\u0430\\u0442\\u0435\\u043b\\u044c\\u043d\\u044b\\u043c \\u0443\\u0447\\u0440\\u0435\\u0436\\u0434\\u0435\\u043d\\u0438\\u0435\\u043c \\u043f\\u0440\\u0438 \\u041f\\u0440\\u0435\\u0437\\u0438\\u0434\\u0435\\u043d\\u0442\\u0435 \\u0420\\u0424\"}",
        "category_id": 1,
        "created_by": 1,
        "updated_by": 1,
        "deleted_by": null,
        "created_at": "2021-01-16 14:43:26",
        "updated_at": "2021-01-20 14:43:26",
        "deleted_at": null
    },
    {
        "id": 13,
        "title": "{\"ru\":\"\\u0422\\u0413\\u042e\\u0423 \\u043f\\u043e\\u0434\\u043f\\u0438\\u0441\\u0430\\u043b \\u0414\\u043e\\u0440\\u043e\\u0436\\u043d\\u044b\\u0435 \\u043a\\u0430\\u0440\\u0442\\u044b \\u0441 \\u043e\\u0431\\u0449\\u0435\\u043e\\u0431\\u0440\\u0430\\u0437\\u043e\\u0432\\u0430\\u0442\\u0435\\u043b\\u044c\\u043d\\u044b\\u043c\\u0438 \\u0448\\u043a\\u043e\\u043b\\u0430\\u043c\\u0438 \\u0410\\u043b\\u043c\\u0430\\u0437\\u0430\\u0440\\u0441\\u043a\\u043e\\u0433\\u043e \\u0440\\u0430\\u0439\\u043e\\u043d\\u0430\"}",
        "alias": "tgyuu-podpisal-doroznye-karty-s-obshheobrazovatelnymi-skolami-almazarskogo-raiona",
        "image": "storage/image/7DGxwDAVZwC4v07l0YdlcTIWjScZiIM37t0m9ND4.jpg",
        "user_id": 1,
        "content": "{\"ru\":\"<p style=\\\"margin-left:0px;\\\">\\u0421\\u0435\\u0433\\u043e\\u0434\\u043d\\u044f \\u0432 \\u043d\\u0430\\u0448\\u0435\\u0439 \\u0441\\u0442\\u0440\\u0430\\u043d\\u0435 \\u0440\\u0435\\u0430\\u043b\\u0438\\u0437\\u0443\\u0435\\u0442\\u0441\\u044f \\u043f\\u0440\\u043e\\u0433\\u0440\\u0430\\u043c\\u043c\\u0430 \\u043c\\u0435\\u0440 \\u043f\\u043e \\u0434\\u0430\\u043b\\u044c\\u043d\\u0435\\u0439\\u0448\\u0435\\u043c\\u0443 \\u043f\\u043e\\u0432\\u044b\\u0448\\u0435\\u043d\\u0438\\u044e \\u043a\\u0430\\u0447\\u0435\\u0441\\u0442\\u0432\\u0430 \\u043e\\u0431\\u0440\\u0430\\u0437\\u043e\\u0432\\u0430\\u043d\\u0438\\u044f, \\u0443\\u043b\\u0443\\u0447\\u0448\\u0435\\u043d\\u0438\\u044e \\u0440\\u0435\\u0439\\u0442\\u0438\\u043d\\u0433\\u043e\\u0432 \\u0448\\u043a\\u043e\\u043b \\u0432 \\u0440\\u0430\\u0437\\u0440\\u0435\\u0437\\u0435 \\u0440\\u0430\\u0439\\u043e\\u043d\\u043e\\u0432, \\u0433\\u043e\\u0440\\u043e\\u0434\\u043e\\u0432 \\u0438 \\u0440\\u0435\\u0433\\u0438\\u043e\\u043d\\u043e\\u0432, \\u0443\\u0432\\u0435\\u043b\\u0438\\u0447\\u0435\\u043d\\u0438\\u044e \\u043e\\u0445\\u0432\\u0430\\u0442\\u0430 \\u043c\\u043e\\u043b\\u043e\\u0434\\u0435\\u0436\\u0438 \\u0432\\u044b\\u0441\\u0448\\u0438\\u043c \\u043e\\u0431\\u0440\\u0430\\u0437\\u043e\\u0432\\u0430\\u043d\\u0438\\u0435\\u043c. \\u0421\\u0435\\u0433\\u043e\\u0434\\u043d\\u044f \\u043d\\u0430\\u0448\\u0430 \\u0441\\u0442\\u0440\\u0430\\u043d\\u0430 \\u2013 \\u041d\\u043e\\u0432\\u044b\\u0439 \\u0423\\u0437\\u0431\\u0435\\u043a\\u0438\\u0441\\u0442\\u0430\\u043d \\u0438\\u0434\\u0435\\u0442 \\u043a \\u0441\\u0432\\u043e\\u0431\\u043e\\u0434\\u043d\\u043e\\u0439 \\u0438 \\u0431\\u043b\\u0430\\u0433\\u043e\\u043f\\u043e\\u043b\\u0443\\u0447\\u043d\\u043e\\u0439 \\u0436\\u0438\\u0437\\u043d\\u0438, \\u0441\\u043e\\u0432\\u0440\\u0435\\u043c\\u0435\\u043d\\u043d\\u043e\\u043c\\u0443 \\u0440\\u0430\\u0437\\u0432\\u0438\\u0442\\u0438\\u044e, \\u0438\\u043d\\u0442\\u0435\\u043b\\u043b\\u0435\\u043a\\u0442\\u0443\\u0430\\u043b\\u044c\\u043d\\u043e\\u043c\\u0443 \\u0440\\u043e\\u0441\\u0442\\u0443 \\u043b\\u044e\\u0434\\u0435\\u0439, \\u043f\\u043e\\u0432\\u044b\\u0448\\u0435\\u043d\\u0438\\u044e \\u043a\\u0430\\u0447\\u0435\\u0441\\u0442\\u0432\\u0430 \\u0438 \\u044d\\u0444\\u0444\\u0435\\u043a\\u0442\\u0438\\u0432\\u043d\\u043e\\u0441\\u0442\\u0438 \\u0441\\u0438\\u0441\\u0442\\u0435\\u043c\\u044b \\u043e\\u0431\\u0440\\u0430\\u0437\\u043e\\u0432\\u0430\\u043d\\u0438\\u044f, \\u043e\\u0431\\u0443\\u0447\\u0435\\u043d\\u0438\\u044f \\u0441\\u0442\\u0443\\u0434\\u0435\\u043d\\u0442\\u043e\\u0432 \\u043d\\u0430 \\u043c\\u0435\\u0436\\u0434\\u0443\\u043d\\u0430\\u0440\\u043e\\u0434\\u043d\\u043e\\u043c \\u0443\\u0440\\u043e\\u0432\\u043d\\u0435.<\\/p><p style=\\\"margin-left:0px;\\\">\\u041a\\u043e\\u043d\\u0435\\u0447\\u043d\\u043e, \\u044d\\u0442\\u0438\\u0445 \\u0446\\u0435\\u043b\\u0435\\u0439 \\u043c\\u043e\\u0436\\u043d\\u043e \\u0434\\u043e\\u0441\\u0442\\u0438\\u0447\\u044c \\u0442\\u043e\\u043b\\u044c\\u043a\\u043e \\u0441 \\u043f\\u043e\\u043c\\u043e\\u0449\\u044c\\u044e \\u0445\\u043e\\u0440\\u043e\\u0448\\u043e \\u043e\\u0431\\u0440\\u0430\\u0437\\u043e\\u0432\\u0430\\u043d\\u043d\\u044b\\u0445, \\u0441\\u043e\\u0432\\u0440\\u0435\\u043c\\u0435\\u043d\\u043d\\u043e \\u043c\\u044b\\u0441\\u043b\\u044f\\u0449\\u0438\\u0445 \\u043a\\u0430\\u0434\\u0440\\u043e\\u0432.<\\/p><p style=\\\"margin-left:0px;\\\">\\u0421\\u043b\\u0435\\u0434\\u043e\\u0432\\u0430\\u0442\\u0435\\u043b\\u044c\\u043d\\u043e, \\u043e\\u0441\\u043d\\u043e\\u0432\\u043e\\u0439 \\u0440\\u0430\\u0437\\u0432\\u0438\\u0442\\u0438\\u044f \\u0432\\u0441\\u0435\\u0445 \\u043d\\u0430\\u043f\\u0440\\u0430\\u0432\\u043b\\u0435\\u043d\\u0438\\u0439 \\u044f\\u0432\\u043b\\u044f\\u0435\\u0442\\u0441\\u044f \\u043e\\u0431\\u0440\\u0430\\u0437\\u043e\\u0432\\u0430\\u043d\\u0438\\u0435. \\u0422\\u043e\\u043b\\u044c\\u043a\\u043e \\u043f\\u043e-\\u043d\\u0430\\u0441\\u0442\\u043e\\u044f\\u0449\\u0435\\u043c\\u0443 \\u0441\\u043e\\u0432\\u0440\\u0435\\u043c\\u0435\\u043d\\u043d\\u044b\\u0435, \\u043e\\u0441\\u043e\\u0437\\u043d\\u0430\\u044e\\u0449\\u0438\\u0435 \\u0441\\u0435\\u0431\\u044f \\u043c\\u043e\\u043b\\u043e\\u0434\\u044b\\u0435 \\u043b\\u044e\\u0434\\u0438 \\u043c\\u043e\\u0433\\u0443\\u0442 \\u043f\\u043e-\\u043d\\u0430\\u0441\\u0442\\u043e\\u044f\\u0449\\u0435\\u043c\\u0443 \\u0443\\u043a\\u0440\\u0435\\u043f\\u0438\\u0442\\u044c \\u043e\\u0441\\u043d\\u043e\\u0432\\u044b \\u0422\\u0440\\u0435\\u0442\\u044c\\u0435\\u0433\\u043e \\u0420\\u0435\\u043d\\u0435\\u0441\\u0441\\u0430\\u043d\\u0441\\u0430.<\\/p><p style=\\\"margin-left:0px;\\\">\\u041e\\u0434\\u043d\\u043e \\u0438\\u0437 \\u043f\\u0440\\u0430\\u043a\\u0442\\u0438\\u0447\\u0435\\u0441\\u043a\\u0438\\u0445 \\u0432\\u043e\\u043f\\u043b\\u043e\\u0449\\u0435\\u043d\\u0438\\u0439 \\u043f\\u0440\\u043e\\u0432\\u043e\\u0434\\u0438\\u043c\\u043e\\u0439 \\u0440\\u0430\\u0431\\u043e\\u0442\\u044b \\u2013 \\u0441\\u043e\\u0442\\u0440\\u0443\\u0434\\u043d\\u0438\\u0447\\u0435\\u0441\\u0442\\u0432\\u043e \\u0432\\u0443\\u0437\\u043e\\u0432 \\u0438 \\u0448\\u043a\\u043e\\u043b \\u0441\\u0442\\u0440\\u0430\\u043d\\u044b.&nbsp;&nbsp;<\\/p><p style=\\\"margin-left:0px;\\\">\\u041d\\u0430 \\u0432\\u0438\\u0434\\u0435\\u043e\\u0441\\u0435\\u043b\\u0435\\u043a\\u0442\\u043e\\u0440\\u043d\\u043e\\u043c \\u0441\\u043e\\u0432\\u0435\\u0449\\u0430\\u043d\\u0438\\u0438, \\u0441\\u043e\\u0441\\u0442\\u043e\\u044f\\u0432\\u0448\\u0435\\u043c\\u0441\\u044f 30 \\u043e\\u043a\\u0442\\u044f\\u0431\\u0440\\u044f 2020 \\u0433\\u043e\\u0434\\u0430 \\u043f\\u043e\\u0434 \\u0440\\u0443\\u043a\\u043e\\u0432\\u043e\\u0434\\u0441\\u0442\\u0432\\u043e\\u043c \\u041f\\u0440\\u0435\\u0437\\u0438\\u0434\\u0435\\u043d\\u0442\\u0430 \\u043d\\u0430\\u0448\\u0435\\u0439 \\u0441\\u0442\\u0440\\u0430\\u043d\\u044b, \\u0434\\u0430\\u043d\\u044b \\u043a\\u043e\\u043d\\u043a\\u0440\\u0435\\u0442\\u043d\\u044b\\u0435 \\u043f\\u043e\\u0440\\u0443\\u0447\\u0435\\u043d\\u0438\\u044f \\u043f\\u043e \\u043f\\u043e\\u0432\\u044b\\u0448\\u0435\\u043d\\u0438\\u044e \\u043a\\u0430\\u0447\\u0435\\u0441\\u0442\\u0432\\u0430 \\u043e\\u0431\\u0440\\u0430\\u0437\\u043e\\u0432\\u0430\\u043d\\u0438\\u044f \\u0432 \\u043e\\u0431\\u0449\\u0435\\u043e\\u0431\\u0440\\u0430\\u0437\\u043e\\u0432\\u0430\\u0442\\u0435\\u043b\\u044c\\u043d\\u044b\\u0445 \\u0448\\u043a\\u043e\\u043b\\u0430\\u0445, \\u043a\\u0432\\u0430\\u043b\\u0438\\u0444\\u0438\\u043a\\u0430\\u0446\\u0438\\u0438 \\u0438 \\u043c\\u0435\\u0442\\u043e\\u0434\\u0438\\u0447\\u0435\\u0441\\u043a\\u043e\\u0439 \\u043f\\u043e\\u0434\\u0434\\u0435\\u0440\\u0436\\u043a\\u0435 \\u0443\\u0447\\u0438\\u0442\\u0435\\u043b\\u0435\\u0439.<\\/p><p style=\\\"margin-left:0px;\\\">\\u0423\\u0447\\u0438\\u0442\\u044b\\u0432\\u0430\\u044f \\u044d\\u0442\\u043e, \\u0422\\u0430\\u0448\\u043a\\u0435\\u043d\\u0442\\u0441\\u043a\\u0438\\u0439 \\u0433\\u043e\\u0441\\u0443\\u0434\\u0430\\u0440\\u0441\\u0442\\u0432\\u0435\\u043d\\u043d\\u044b\\u0439 \\u044e\\u0440\\u0438\\u0434\\u0438\\u0447\\u0435\\u0441\\u043a\\u0438\\u0439 \\u0443\\u043d\\u0438\\u0432\\u0435\\u0440\\u0441\\u0438\\u0442\\u0435\\u0442 \\u0443\\u0441\\u0442\\u0430\\u043d\\u043e\\u0432\\u0438\\u043b \\u0441\\u043e\\u0442\\u0440\\u0443\\u0434\\u043d\\u0438\\u0447\\u0435\\u0441\\u0442\\u0432\\u043e \\u0441 \\u043e\\u043e\\u0431\\u0449\\u0435\\u043e\\u0431\\u0440\\u0430\\u0437\\u043e\\u0432\\u0430\\u0442\\u0435\\u043b\\u044c\\u043d\\u044b\\u043c\\u0438 \\u0448\\u043a\\u043e\\u043b\\u0430\\u043c\\u0438 \\u2116\\u2116 29, 159\\u0410, 196, 234, 243, 326 \\u0410\\u043b\\u043c\\u0430\\u0437\\u0430\\u0440\\u0441\\u043a\\u043e\\u0433\\u043e \\u0440\\u0430\\u0439\\u043e\\u043d\\u0430 \\u0441\\u0442\\u043e\\u043b\\u0438\\u0446\\u044b.<\\/p><p style=\\\"margin-left:0px;\\\">\\u0412 \\u043d\\u0430\\u0441\\u0442\\u043e\\u044f\\u0449\\u0435\\u0435 \\u0432\\u0440\\u0435\\u043c\\u044f \\u0443\\u0442\\u0432\\u0435\\u0440\\u0436\\u0434\\u0435\\u043d \\u0441\\u043e\\u0441\\u0442\\u0430\\u0432 \\u0440\\u0430\\u0431\\u043e\\u0447\\u0435\\u0439 \\u0433\\u0440\\u0443\\u043f\\u043f\\u044b \\u043f\\u043e \\u043c\\u0435\\u0442\\u043e\\u0434\\u0438\\u0447\\u0435\\u0441\\u043a\\u043e\\u0439 \\u043f\\u043e\\u043c\\u043e\\u0449\\u0438 \\u044d\\u0442\\u0438\\u043c \\u0448\\u043a\\u043e\\u043b\\u0430\\u043c, \\u043e\\u043d\\u0430 \\u0440\\u0430\\u0431\\u043e\\u0442\\u0430\\u0435\\u0442 \\u043d\\u0430\\u0434 \\u043f\\u043e\\u0432\\u044b\\u0448\\u0435\\u043d\\u0438\\u0435\\u043c \\u043f\\u043e\\u0442\\u0435\\u043d\\u0446\\u0438\\u0430\\u043b\\u0430 \\u0443\\u0447\\u0438\\u0442\\u0435\\u043b\\u0435\\u0439, \\u0440\\u0430\\u0441\\u0448\\u0438\\u0440\\u0435\\u043d\\u0438\\u0435\\u043c \\u0434\\u043e\\u0441\\u0442\\u0443\\u043f\\u0430 \\u043a \\u0432\\u044b\\u0441\\u0448\\u0435\\u043c\\u0443 \\u043e\\u0431\\u0440\\u0430\\u0437\\u043e\\u0432\\u0430\\u043d\\u0438\\u044e, \\u0443\\u043b\\u0443\\u0447\\u0448\\u0435\\u043d\\u0438\\u0435\\u043c \\u043a\\u0430\\u0447\\u0435\\u0441\\u0442\\u0432\\u0430 \\u043e\\u0431\\u0440\\u0430\\u0437\\u043e\\u0432\\u0430\\u043d\\u0438\\u044f \\u0438 \\u0432\\u043d\\u0435\\u0434\\u0440\\u0435\\u043d\\u0438\\u0435\\u043c \\u0441\\u043e\\u0432\\u0440\\u0435\\u043c\\u0435\\u043d\\u043d\\u044b\\u0445 \\u043f\\u0435\\u0434\\u0430\\u0433\\u043e\\u0433\\u0438\\u0447\\u0435\\u0441\\u043a\\u0438\\u0445 \\u0442\\u0435\\u0445\\u043d\\u043e\\u043b\\u043e\\u0433\\u0438\\u0439 \\u0438 \\u0434\\u0443\\u0445\\u043e\\u0432\\u043d\\u043e-\\u0432\\u043e\\u0441\\u043f\\u0438\\u0442\\u0430\\u0442\\u0435\\u043b\\u044c\\u043d\\u043e\\u0439 \\u0440\\u0430\\u0431\\u043e\\u0442\\u044b.<\\/p><p style=\\\"margin-left:0px;\\\">\\u0412 \\u0446\\u0435\\u043b\\u044f\\u0445 \\u0434\\u0430\\u043b\\u044c\\u043d\\u0435\\u0439\\u0448\\u0435\\u0433\\u043e \\u043f\\u043e\\u0432\\u044b\\u0448\\u0435\\u043d\\u0438\\u044f \\u044d\\u0444\\u0444\\u0435\\u043a\\u0442\\u0438\\u0432\\u043d\\u043e\\u0441\\u0442\\u0438 \\u0434\\u0430\\u043d\\u043d\\u043e\\u0439 \\u043f\\u0440\\u0430\\u043a\\u0442\\u0438\\u0447\\u0435\\u0441\\u043a\\u043e\\u0439 \\u0440\\u0430\\u0431\\u043e\\u0442\\u044b, \\u0440\\u0435\\u0430\\u043b\\u0438\\u0437\\u0430\\u0446\\u0438\\u0438 \\u043c\\u0435\\u0440\\u043e\\u043f\\u0440\\u0438\\u044f\\u0442\\u0438\\u0439 \\u043f\\u043e \\u0435\\u0435 \\u0441\\u0438\\u0441\\u0442\\u0435\\u043c\\u0430\\u0442\\u0438\\u0447\\u0435\\u0441\\u043a\\u043e\\u0439 \\u0440\\u0435\\u0430\\u043b\\u0438\\u0437\\u0430\\u0446\\u0438\\u0438 \\u043f\\u043e\\u0434\\u043f\\u0438\\u0441\\u0430\\u043d\\u044b \\u0414\\u043e\\u0440\\u043e\\u0436\\u043d\\u044b\\u0435 \\u043a\\u0430\\u0440\\u0442\\u044b, \\u0440\\u0430\\u0441\\u0441\\u0447\\u0438\\u0442\\u0430\\u043d\\u043d\\u044b\\u0435 \\u043d\\u0430 \\u043e\\u0434\\u0438\\u043d \\u0443\\u0447\\u0435\\u0431\\u043d\\u044b\\u0439 \\u0433\\u043e\\u0434.<\\/p><p style=\\\"margin-left:0px;\\\">\\u0412 \\u043c\\u0435\\u0440\\u043e\\u043f\\u0440\\u0438\\u044f\\u0442\\u0438\\u0438, \\u043e\\u0440\\u0433\\u0430\\u043d\\u0438\\u0437\\u043e\\u0432\\u0430\\u043d\\u043d\\u043e\\u043c \\u0432 \\u0441\\u0432\\u044f\\u0437\\u0438 \\u0441 \\u044d\\u0442\\u0438\\u043c \\u0441\\u043e\\u0431\\u044b\\u0442\\u0438\\u0435\\u043c, \\u043f\\u0440\\u0438\\u043d\\u044f\\u043b\\u0438 \\u0443\\u0447\\u0430\\u0441\\u0442\\u0438\\u0435 \\u0440\\u0435\\u043a\\u0442\\u043e\\u0440 \\u0422\\u0413\\u042e\\u0423 \\u0420\\u0430\\u0445\\u0438\\u043c\\u0436\\u043e\\u043d \\u0425\\u0430\\u043a\\u0438\\u043c\\u043e\\u0432, \\u043f\\u0440\\u043e\\u0440\\u0435\\u043a\\u0442\\u043e\\u0440 \\u043f\\u043e \\u043c\\u0435\\u0436\\u0434\\u0443\\u043d\\u0430\\u0440\\u043e\\u0434\\u043d\\u043e\\u043c\\u0443 \\u0441\\u043e\\u0442\\u0440\\u0443\\u0434\\u043d\\u0438\\u0447\\u0435\\u0441\\u0442\\u0432\\u0443 \\u0438 \\u043d\\u0435\\u043f\\u0440\\u0435\\u0440\\u044b\\u0432\\u043d\\u043e\\u043c\\u0443 \\u043e\\u0431\\u0440\\u0430\\u0437\\u043e\\u0432\\u0430\\u043d\\u0438\\u044e \\u0414\\u0438\\u043b\\u0448\\u043e\\u0434 \\u0423\\u043c\\u0430\\u0440\\u043e\\u0432, \\u043f\\u0440\\u0435\\u0434\\u0441\\u0442\\u0430\\u0432\\u0438\\u0442\\u0435\\u043b\\u0438 \\u043e\\u0442\\u0434\\u0435\\u043b\\u0430 \\u043d\\u0430\\u0440\\u043e\\u0434\\u043d\\u043e\\u0433\\u043e \\u043e\\u0431\\u0440\\u0430\\u0437\\u043e\\u0432\\u0430\\u043d\\u0438\\u044f \\u0440\\u0430\\u0439\\u043e\\u043d\\u0430, \\u0434\\u0438\\u0440\\u0435\\u043a\\u0442\\u043e\\u0440\\u0430 \\u0438 \\u0443\\u0447\\u0438\\u0442\\u0435\\u043b\\u044f \\u0448\\u043a\\u043e\\u043b.<\\/p><p style=\\\"margin-left:0px;\\\">\\u0412 \\u043d\\u0430\\u0447\\u0430\\u043b\\u0435 \\u043c\\u0435\\u0440\\u043e\\u043f\\u0440\\u0438\\u044f\\u0442\\u0438\\u044f \\u0443\\u0447\\u0430\\u0441\\u0442\\u043d\\u0438\\u043a\\u0430\\u043c \\u043f\\u0440\\u0435\\u0434\\u043e\\u0441\\u0442\\u0430\\u0432\\u043b\\u0435\\u043d\\u0430 \\u043d\\u0435\\u043e\\u0431\\u0445\\u043e\\u0434\\u0438\\u043c\\u0430\\u044f \\u0438\\u043d\\u0444\\u043e\\u0440\\u043c\\u0430\\u0446\\u0438\\u044f \\u0438 \\u0434\\u0430\\u043d\\u044b \\u0440\\u0435\\u043a\\u043e\\u043c\\u0435\\u043d\\u0434\\u0430\\u0446\\u0438\\u0438 \\u043f\\u043e \\u0438\\u0437\\u043c\\u0435\\u043d\\u0435\\u043d\\u0438\\u044f\\u043c \\u0432 \\u0441\\u0438\\u0441\\u0442\\u0435\\u043c\\u0435 \\u0432\\u044b\\u0441\\u0448\\u0435\\u0433\\u043e \\u043e\\u0431\\u0440\\u0430\\u0437\\u043e\\u0432\\u0430\\u043d\\u0438\\u044f, \\u043f\\u0440\\u043e\\u0444\\u043e\\u0440\\u0438\\u0435\\u043d\\u0442\\u0430\\u0446\\u0438\\u0438 \\u0432\\u044b\\u043f\\u0443\\u0441\\u043a\\u043d\\u0438\\u043a\\u043e\\u0432 \\u0448\\u043a\\u043e\\u043b, \\u043f\\u043e\\u0432\\u044b\\u0448\\u0435\\u043d\\u0438\\u044e \\u043a\\u0430\\u0447\\u0435\\u0441\\u0442\\u0432\\u0430 \\u0438 \\u044d\\u0444\\u0444\\u0435\\u043a\\u0442\\u0438\\u0432\\u043d\\u043e\\u0441\\u0442\\u0438 \\u043e\\u0431\\u0443\\u0447\\u0435\\u043d\\u0438\\u044f.<\\/p><p style=\\\"margin-left:0px;\\\">\\u0412 \\u0445\\u043e\\u0434\\u0435 \\u0446\\u0435\\u0440\\u0435\\u043c\\u043e\\u043d\\u0438\\u0438 \\u043e\\u0431\\u0441\\u0443\\u0436\\u0434\\u0435\\u043d\\u044b \\u0432\\u043e\\u043f\\u0440\\u043e\\u0441\\u044b \\u0440\\u0430\\u0437\\u0432\\u0438\\u0442\\u0438\\u044f \\u0441\\u043e\\u0442\\u0440\\u0443\\u0434\\u043d\\u0438\\u0447\\u0435\\u0441\\u0442\\u0432\\u0430 \\u043c\\u0435\\u0436\\u0434\\u0443 \\u0443\\u043d\\u0438\\u0432\\u0435\\u0440\\u0441\\u0438\\u0442\\u0435\\u0442\\u043e\\u043c \\u0438 \\u0448\\u043a\\u043e\\u043b\\u043e\\u0439.<\\/p><p style=\\\"margin-left:0px;\\\">\\u0414\\u0438\\u0440\\u0435\\u043a\\u0442\\u043e\\u0440\\u0430 \\u0448\\u043a\\u043e\\u043b \\u0432\\u044b\\u0440\\u0430\\u0437\\u0438\\u043b\\u0438 \\u043e\\u0441\\u043e\\u0431\\u0443\\u044e \\u0431\\u043b\\u0430\\u0433\\u043e\\u0434\\u0430\\u0440\\u043d\\u043e\\u0441\\u0442\\u044c \\u043e\\u0442 \\u0438\\u043c\\u0435\\u043d\\u0438 \\u0443\\u0447\\u0430\\u0449\\u0438\\u0445\\u0441\\u044f \\u0440\\u0443\\u043a\\u043e\\u0432\\u043e\\u0434\\u0441\\u0442\\u0432\\u0443 \\u0443\\u043d\\u0438\\u0432\\u0435\\u0440\\u0441\\u0438\\u0442\\u0435\\u0442\\u0430 \\u0437\\u0430 \\u0441\\u043e\\u0434\\u0435\\u0439\\u0441\\u0442\\u0432\\u0438\\u0435 \\u043f\\u0440\\u043e\\u0444\\u043e\\u0440\\u0438\\u0435\\u043d\\u0442\\u0430\\u0446\\u0438\\u0438, \\u043e\\u0440\\u0433\\u0430\\u043d\\u0438\\u0437\\u0430\\u0446\\u0438\\u044e \\u0432\\u0441\\u0442\\u0440\\u0435\\u0447 \\u0448\\u043a\\u043e\\u043b\\u044c\\u043d\\u0438\\u043a\\u043e\\u0432 \\u0441 \\u043f\\u0440\\u043e\\u0444\\u0435\\u0441\\u0441\\u043e\\u0440\\u0430\\u043c\\u0438 \\u0438 \\u0443\\u0447\\u0438\\u0442\\u0435\\u043b\\u044f\\u043c\\u0438 \\u0432\\u0443\\u0437\\u0430, \\u043f\\u043e\\u0441\\u0442\\u0430\\u043d\\u043e\\u0432\\u043a\\u0443 \\u0441\\u0442\\u0443\\u0434\\u0435\\u043d\\u0447\\u0435\\u0441\\u043a\\u043e\\u0439 \\u0442\\u0435\\u0430\\u0442\\u0440\\u0430\\u043b\\u044c\\u043d\\u043e\\u0439 \\u0441\\u0442\\u0443\\u0434\\u0438\\u0438.<\\/p>\"}",
        "description": "{\"ru\":\"\\u0422\\u0413\\u042e\\u0423 \\u043f\\u043e\\u0434\\u043f\\u0438\\u0441\\u0430\\u043b \\u0414\\u043e\\u0440\\u043e\\u0436\\u043d\\u044b\\u0435 \\u043a\\u0430\\u0440\\u0442\\u044b \\u0441 \\u043e\\u0431\\u0449\\u0435\\u043e\\u0431\\u0440\\u0430\\u0437\\u043e\\u0432\\u0430\\u0442\\u0435\\u043b\\u044c\\u043d\\u044b\\u043c\\u0438 \\u0448\\u043a\\u043e\\u043b\\u0430\\u043c\\u0438 \\u0410\\u043b\\u043c\\u0430\\u0437\\u0430\\u0440\\u0441\\u043a\\u043e\\u0433\\u043e \\u0440\\u0430\\u0439\\u043e\\u043d\\u0430\"}",
        "category_id": 1,
        "created_by": 1,
        "updated_by": 1,
        "deleted_by": null,
        "created_at": "2021-01-20 14:44:06",
        "updated_at": "2021-01-20 14:44:06",
        "deleted_at": null
    },
    {
        "id": 14,
        "title": "{\"ru\":\"C\\u0430\\u043c\\u044b\\u0439 \\u0432\\u0430\\u0436\\u043d\\u044b\\u0439 \\u0432\\u043e\\u043f\\u0440\\u043e\\u0441 \\u2014 \\u0442\\u0440\\u0443\\u0434\\u043e\\u0443\\u0441\\u0442\\u0440\\u043e\\u0439\\u0441\\u0442\\u0432\\u043e \\u0432\\u044b\\u043f\\u0443\\u0441\\u043a\\u043d\\u0438\\u043a\\u043e\\u0432\"}",
        "alias": "camyi-vaznyi-vopros-trudoustroistvo-vypusknikov-1",
        "image": "storage/image/qYpZlIZzsvwtOI22TlTszElWsOvWTKEHVb0f3ePr.jpg",
        "user_id": 1,
        "content": "{\"ru\":\"<p style=\\\"margin-left:0px;\\\">\\u0412 \\u043c\\u0435\\u0440\\u043e\\u043f\\u0440\\u0438\\u044f\\u0442\\u0438\\u0438, \\u043e\\u0440\\u0433\\u0430\\u043d\\u0438\\u0437\\u043e\\u0432\\u0430\\u043d\\u043d\\u043e\\u043c \\u0432 \\u043a\\u043e\\u043d\\u0444\\u0435\\u0440\\u0435\\u043d\\u0446-\\u0437\\u0430\\u043b\\u0435 \\u0443\\u043d\\u0438\\u0432\\u0435\\u0440\\u0441\\u0438\\u0442\\u0435\\u0442\\u0430, \\u0442\\u0430\\u043a\\u0436\\u0435 \\u043f\\u0440\\u0438\\u043d\\u044f\\u043b\\u0438 \\u0443\\u0447\\u0430\\u0441\\u0442\\u0438\\u0435 \\u043f\\u0440\\u043e\\u0440\\u0435\\u043a\\u0442\\u043e\\u0440\\u044b, \\u0434\\u0435\\u043a\\u0430\\u043d\\u044b \\u0444\\u0430\\u043a\\u0443\\u043b\\u044c\\u0442\\u0435\\u0442\\u043e\\u0432, \\u0437\\u0430\\u0432\\u0435\\u0434\\u0443\\u044e\\u0449\\u0438\\u0435 \\u043a\\u0430\\u0444\\u0435\\u0434\\u0440\\u0430\\u043c\\u0438, \\u0440\\u0443\\u043a\\u043e\\u0432\\u043e\\u0434\\u0438\\u0442\\u0435\\u043b\\u0438 \\u043f\\u043e\\u0434\\u0440\\u0430\\u0437\\u0434\\u0435\\u043b\\u0435\\u043d\\u0438\\u0439.<\\/p><p style=\\\"margin-left:0px;\\\">\\u0422\\u0430\\u043a\\u0436\\u0435 \\u0434\\u043b\\u044f \\u044e\\u043d\\u043e\\u0448\\u0435\\u0439 \\u0438 \\u0434\\u0435\\u0432\\u0443\\u0448\\u0435\\u043a, \\u043f\\u0440\\u043e\\u0436\\u0438\\u0432\\u0430\\u044e\\u0449\\u0438\\u0445 \\u0432 \\u0440\\u0430\\u0437\\u043d\\u044b\\u0445 \\u043e\\u0431\\u043b\\u0430\\u0441\\u0442\\u044f\\u0445, \\u0441\\u043e\\u0437\\u0434\\u0430\\u043d\\u0430 \\u0432\\u043e\\u0437\\u043c\\u043e\\u0436\\u043d\\u043e\\u0441\\u0442\\u044c \\u0443\\u0447\\u0430\\u0441\\u0442\\u0438\\u044f \\u043d\\u0430 \\u0432\\u0441\\u0442\\u0440\\u0435\\u0447\\u0435 \\u0447\\u0435\\u0440\\u0435\\u0437 \\u043f\\u043b\\u0430\\u0442\\u0444\\u043e\\u0440\\u043c\\u0443 ZOOM.<\\/p><p style=\\\"margin-left:0px;\\\">\\u0412 \\u043d\\u0430\\u0447\\u0430\\u043b\\u0435 \\u0432\\u0441\\u0442\\u0440\\u0435\\u0447\\u0438, \\u043a\\u043e\\u0442\\u043e\\u0440\\u0430\\u044f \\u043f\\u0440\\u043e\\u0448\\u043b\\u0430 \\u0432 \\u0432\\u0438\\u0434\\u0435 \\u043e\\u0442\\u043a\\u0440\\u044b\\u0442\\u043e\\u0433\\u043e \\u0434\\u0438\\u0430\\u043b\\u043e\\u0433\\u0430, \\u0420.\\u0425\\u0430\\u043a\\u0438\\u043c\\u043e\\u0432 \\u043e\\u0441\\u043e\\u0431\\u043e \\u043e\\u0442\\u043c\\u0435\\u0442\\u0438\\u043b, \\u0447\\u0442\\u043e \\u0442\\u0440\\u0443\\u0434\\u043e\\u0443\\u0441\\u0442\\u0440\\u043e\\u0439\\u0441\\u0442\\u0432\\u043e \\u0432\\u044b\\u043f\\u0443\\u0441\\u043a\\u043d\\u0438\\u043a\\u043e\\u0432 \\u2014 \\u0432\\u0430\\u0436\\u043d\\u044b\\u0439 \\u0432\\u043e\\u043f\\u0440\\u043e\\u0441, \\u043f\\u0440\\u0435\\u0434\\u043e\\u0441\\u0442\\u0430\\u0432\\u0438\\u043b \\u0438\\u043d\\u0444\\u043e\\u0440\\u043c\\u0430\\u0446\\u0438\\u044e \\u043e \\u043c\\u0435\\u0440\\u0430\\u0445, \\u043e\\u0441\\u0443\\u0449\\u0435\\u0441\\u0442\\u0432\\u043b\\u044f\\u0435\\u043c\\u044b\\u0445 \\u0432 \\u0443\\u043d\\u0438\\u0432\\u0435\\u0440\\u0441\\u0438\\u0442\\u0435\\u0442\\u0435 \\u043f\\u043e \\u0434\\u0430\\u043d\\u043d\\u043e\\u043c\\u0443 \\u043d\\u0430\\u043f\\u0440\\u0430\\u0432\\u043b\\u0435\\u043d\\u0438\\u044e.<\\/p><p style=\\\"margin-left:0px;\\\">\\u041a\\u0430\\u043a \\u043e\\u0442\\u043c\\u0435\\u0447\\u0430\\u043b\\u043e\\u0441\\u044c, \\u0432\\u0435\\u0434\\u0435\\u0442\\u0441\\u044f \\u0440\\u0430\\u0431\\u043e\\u0442\\u0430 \\u043f\\u043e \\u043d\\u0430\\u043f\\u0440\\u0430\\u0432\\u043b\\u0435\\u043d\\u0438\\u044e \\u043d\\u0430 \\u043f\\u0440\\u0430\\u043a\\u0442\\u0438\\u043a\\u0443 \\u0441\\u0442\\u0443\\u0434\\u0435\\u043d\\u0442\\u043e\\u0432 \\u0438\\u0441\\u0445\\u043e\\u0434\\u044f \\u0438\\u0437 \\u0442\\u0435\\u043c\\u044b \\u0432\\u044b\\u043f\\u0443\\u0441\\u043a\\u043d\\u043e\\u0439 \\u043a\\u0432\\u0430\\u043b\\u0438\\u0444\\u0438\\u043a\\u0430\\u0446\\u0438\\u043e\\u043d\\u043d\\u043e\\u0439 \\u0440\\u0430\\u0431\\u043e\\u0442\\u044b \\u0438\\u043b\\u0438 \\u043d\\u0430\\u043f\\u0440\\u0430\\u0432\\u043b\\u0435\\u043d\\u0438\\u044f, \\u0430 \\u0442\\u0430\\u043a\\u0436\\u0435 \\u0438\\u0445 \\u0434\\u0430\\u043b\\u044c\\u043d\\u0435\\u0439\\u0448\\u0435\\u043c\\u0443 \\u0442\\u0440\\u0443\\u0434\\u043e\\u0443\\u0441\\u0442\\u0440\\u043e\\u0439\\u0441\\u0442\\u0432\\u0443. \\u041f\\u043e \\u0434\\u0430\\u043d\\u043d\\u044b\\u043c \\u0432\\u043e\\u043f\\u0440\\u043e\\u0441\\u0430\\u043c \\u0443\\u0441\\u0442\\u0430\\u043d\\u043e\\u0432\\u043b\\u0435\\u043d\\u043e \\u0441\\u043e\\u0442\\u0440\\u0443\\u0434\\u043d\\u0438\\u0447\\u0435\\u0441\\u0442\\u0432\\u043e \\u0441 \\u0433\\u043e\\u0441\\u0443\\u0434\\u0430\\u0440\\u0441\\u0442\\u0432\\u0435\\u043d\\u043d\\u044b\\u043c\\u0438 \\u0438 \\u043e\\u0431\\u0449\\u0435\\u0441\\u0442\\u0432\\u0435\\u043d\\u043d\\u044b\\u043c\\u0438 \\u043e\\u0440\\u0433\\u0430\\u043d\\u0438\\u0437\\u0430\\u0446\\u0438\\u044f\\u043c\\u0438, \\u0430\\u0434\\u0432\\u043e\\u043a\\u0430\\u0442\\u0441\\u043a\\u0438\\u043c\\u0438 \\u0444\\u0438\\u0440\\u043c\\u0430\\u043c\\u0438, \\u043d\\u043e\\u0442\\u0430\\u0440\\u0438\\u0430\\u043b\\u044c\\u043d\\u044b\\u043c\\u0438 \\u043a\\u043e\\u043d\\u0442\\u043e\\u0440\\u0430\\u043c\\u0438.&nbsp;<\\/p><figure class=\\\"image image-style-align-center\\\"><img src=\\\"https:\\/\\/tsul.uz\\/files\\/obyavleniya\\/oab\\/uchrashuv1.jpg\\\"><\\/figure><p style=\\\"margin-left:0px;\\\">\\u0422\\u0430\\u043a\\u0436\\u0435 \\u0441\\u0435\\u0439\\u0447\\u0430\\u0441 \\u0432\\u0435\\u0434\\u0435\\u0442\\u0441\\u044f \\u0440\\u0430\\u0431\\u043e\\u0442\\u0430 \\u043f\\u043e \\u0444\\u043e\\u0440\\u043c\\u0438\\u0440\\u043e\\u0432\\u0430\\u043d\\u0438\\u044e \\u0431\\u0430\\u0437\\u044b \\u0438 \\u043d\\u0430\\u043f\\u0440\\u0430\\u0432\\u043b\\u0435\\u043d\\u0438\\u044e \\u043d\\u0430 \\u043e\\u0441\\u043d\\u043e\\u0432\\u0435 \\u0437\\u0430\\u043f\\u0440\\u043e\\u0441\\u043e\\u0432 \\u043e\\u0440\\u0433\\u0430\\u043d\\u0438\\u0437\\u0430\\u0446\\u0438\\u0439<\\/p><p style=\\\"margin-left:0px;\\\">\\u041a\\u0440\\u043e\\u043c\\u0435 \\u0442\\u043e\\u0433\\u043e, \\u0441 \\u0446\\u0435\\u043b\\u044c\\u044e \\u0441\\u043e\\u0434\\u0435\\u0439\\u0441\\u0442\\u0432\\u0438\\u044f \\u043f\\u0440\\u043e\\u0445\\u043e\\u0436\\u0434\\u0435\\u043d\\u0438\\u044e \\u0441\\u0442\\u0443\\u0434\\u0435\\u043d\\u0442\\u0430\\u043c\\u0438 \\u043f\\u0440\\u0430\\u043a\\u0442\\u0438\\u043a\\u0438 \\u0432 \\u043c\\u0438\\u043d\\u0438\\u0441\\u0442\\u0435\\u0440\\u0441\\u0442\\u0432\\u0430\\u0445, \\u043a\\u043e\\u043c\\u0438\\u0442\\u0435\\u0442\\u0430\\u0445 \\u0438 \\u0432\\u0435\\u0434\\u043e\\u043c\\u0441\\u0442\\u0432\\u0430\\u0445 \\u0441 \\u044d\\u0442\\u0438\\u043c\\u0438 \\u043e\\u0440\\u0433\\u0430\\u043d\\u0438\\u0437\\u0430\\u0446\\u0438\\u044f\\u043c\\u0438 \\u0432\\u0435\\u0434\\u0443\\u0442\\u0441\\u044f \\u043f\\u0435\\u0440\\u0435\\u0433\\u043e\\u0432\\u043e\\u0440\\u044b.<\\/p><p style=\\\"margin-left:0px;\\\">\\u041d\\u0430 \\u0432\\u0441\\u0442\\u0440\\u0435\\u0447\\u0435 \\u0441\\u0442\\u0443\\u0434\\u0435\\u043d\\u0442\\u044b \\u0442\\u0430\\u043a\\u0436\\u0435 \\u0432\\u043d\\u0435\\u0441\\u043b\\u0438 \\u043f\\u0440\\u0435\\u0434\\u043b\\u043e\\u0436\\u0435\\u043d\\u0438\\u044f \\u043f\\u043e \\u0432\\u043e\\u043f\\u0440\\u043e\\u0441\\u0430\\u043c \\u043f\\u0440\\u043e\\u0445\\u043e\\u0436\\u0434\\u0435\\u043d\\u0438\\u044f \\u043f\\u0440\\u0430\\u043a\\u0442\\u0438\\u043a\\u0438 \\u0438 \\u0442\\u0440\\u0443\\u0434\\u043e\\u0443\\u0441\\u0442\\u0440\\u043e\\u0439\\u0441\\u0442\\u0432\\u0430.<\\/p><p style=\\\"margin-left:0px;\\\">\\u0412 \\u0447\\u0430\\u0441\\u0442\\u043d\\u043e\\u0441\\u0442\\u0438, \\u043e\\u043d\\u0438 \\u043e\\u0431\\u0440\\u0430\\u0442\\u0438\\u043b\\u0438\\u0441\\u044c \\u043a \\u0440\\u0435\\u043a\\u0442\\u043e\\u0440\\u0443 \\u0441 \\u043f\\u0440\\u043e\\u0441\\u044c\\u0431\\u043e\\u0439 \\u0441\\u043e\\u0434\\u0435\\u0439\\u0441\\u0442\\u0432\\u043e\\u0432\\u0430\\u0442\\u044c \\u043f\\u0440\\u043e\\u0445\\u043e\\u0436\\u0434\\u0435\\u043d\\u0438\\u044e \\u043f\\u0440\\u0430\\u043a\\u0442\\u0438\\u043a\\u0438 \\u0432 \\u0431\\u0430\\u043d\\u043a\\u0430\\u0445, \\u043c\\u0438\\u043d\\u0438\\u0441\\u0442\\u0435\\u0440\\u0441\\u0442\\u0432\\u0430\\u0445 \\u0438 \\u0432\\u0435\\u0434\\u043e\\u043c\\u0441\\u0442\\u0432\\u0430\\u0445.<\\/p><p style=\\\"margin-left:0px;\\\">\\u0412 \\u0445\\u043e\\u0434\\u0435 \\u043e\\u0442\\u043a\\u0440\\u044b\\u0442\\u043e\\u0433\\u043e \\u0434\\u0438\\u0430\\u043b\\u043e\\u0433\\u0430 \\u0431\\u043e\\u043b\\u044c\\u0448\\u0438\\u043d\\u0441\\u0442\\u0432\\u043e \\u043e\\u0431\\u0440\\u0430\\u0449\\u0435\\u043d\\u0438\\u0439 \\u0441\\u0442\\u0443\\u0434\\u0435\\u043d\\u0442\\u043e\\u0432 \\u0440\\u0435\\u0448\\u0435\\u043d\\u044b \\u043d\\u0430 \\u043c\\u0435\\u0441\\u0442\\u0435.<\\/p><p style=\\\"margin-left:0px;\\\">\\u0422\\u0430\\u043a\\u0436\\u0435 \\u043f\\u0440\\u043e\\u0440\\u0435\\u043a\\u0442\\u043e\\u0440\\u0430\\u043c, \\u0434\\u0435\\u043a\\u0430\\u043d\\u0430\\u043c, \\u0437\\u0430\\u0432\\u0435\\u0434\\u0443\\u044e\\u0449\\u0438\\u043c \\u043a\\u0430\\u0444\\u0435\\u0434\\u0440 \\u0438 \\u0440\\u0443\\u043a\\u043e\\u0432\\u043e\\u0434\\u0438\\u0442\\u0435\\u043b\\u044f\\u043c \\u043f\\u043e\\u0434\\u0440\\u0430\\u0437\\u0434\\u0435\\u043b\\u0435\\u043d\\u0438\\u0439 \\u0434\\u0430\\u043d \\u0440\\u044f\\u0434 \\u043f\\u043e\\u0440\\u0443\\u0447\\u0435\\u043d\\u0438\\u0439 \\u043f\\u043e \\u0440\\u0435\\u0448\\u0435\\u043d\\u0438\\u044e \\u043d\\u0435\\u043a\\u043e\\u0442\\u043e\\u0440\\u044b\\u0445 \\u0432\\u043e\\u043f\\u0440\\u043e\\u0441\\u043e\\u0432.<\\/p><p style=\\\"margin-left:0px;\\\">\\u0412 \\u0445\\u043e\\u0434\\u0435 \\u043c\\u0435\\u0440\\u043e\\u043f\\u0440\\u0438\\u044f\\u0442\\u0438\\u044f \\u0441\\u0442\\u0443\\u0434\\u0435\\u043d\\u0442\\u044b \\u043f\\u043e\\u043b\\u0443\\u0447\\u0438\\u043b\\u0438 \\u043e\\u0442\\u0432\\u0435\\u0442\\u044b \\u043d\\u0430 \\u043c\\u043d\\u043e\\u0433\\u0438\\u0435 \\u0438\\u043d\\u0442\\u0435\\u0440\\u0435\\u0441\\u0443\\u044e\\u0449\\u0438\\u0435 \\u0438\\u0445 \\u0432\\u043e\\u043f\\u0440\\u043e\\u0441\\u044b.<\\/p>\"}",
        "description": "{\"ru\":\"\\u0412 \\u043c\\u0435\\u0440\\u043e\\u043f\\u0440\\u0438\\u044f\\u0442\\u0438\\u0438, \\u043e\\u0440\\u0433\\u0430\\u043d\\u0438\\u0437\\u043e\\u0432\\u0430\\u043d\\u043d\\u043e\\u043c \\u0432 \\u043a\\u043e\\u043d\\u0444\\u0435\\u0440\\u0435\\u043d\\u0446-\\u0437\\u0430\\u043b\\u0435 \\u0443\\u043d\\u0438\\u0432\\u0435\\u0440\\u0441\\u0438\\u0442\\u0435\\u0442\\u0430, \\u0442\\u0430\\u043a\\u0436\\u0435 \\u043f\\u0440\\u0438\\u043d\\u044f\\u043b\\u0438 \\u0443\\u0447\\u0430\\u0441\\u0442\\u0438\\u0435 \\u043f\\u0440\\u043e\\u0440\\u0435\\u043a\\u0442\\u043e\\u0440\\u044b, ...\"}",
        "category_id": 2,
        "created_by": 1,
        "updated_by": 1,
        "deleted_by": null,
        "created_at": "2021-01-15 14:44:12",
        "updated_at": "2021-01-28 17:59:44",
        "deleted_at": null
    }
]
